%TF.GenerationSoftware,KiCad,Pcbnew,(6.0.11)*%
%TF.CreationDate,2023-02-09T10:45:31-05:00*%
%TF.ProjectId,fan-controller,66616e2d-636f-46e7-9472-6f6c6c65722e,rev?*%
%TF.SameCoordinates,Original*%
%TF.FileFunction,Copper,L2,Bot*%
%TF.FilePolarity,Positive*%
%FSLAX46Y46*%
G04 Gerber Fmt 4.6, Leading zero omitted, Abs format (unit mm)*
G04 Created by KiCad (PCBNEW (6.0.11)) date 2023-02-09 10:45:31*
%MOMM*%
%LPD*%
G01*
G04 APERTURE LIST*
%TA.AperFunction,ComponentPad*%
%ADD10R,1.700000X1.700000*%
%TD*%
%TA.AperFunction,ComponentPad*%
%ADD11O,1.700000X1.700000*%
%TD*%
%TA.AperFunction,ComponentPad*%
%ADD12C,0.800000*%
%TD*%
%TA.AperFunction,ComponentPad*%
%ADD13C,6.400000*%
%TD*%
%TA.AperFunction,ComponentPad*%
%ADD14R,1.800000X1.070000*%
%TD*%
%TA.AperFunction,ComponentPad*%
%ADD15O,1.800000X1.070000*%
%TD*%
%TA.AperFunction,ViaPad*%
%ADD16C,0.500000*%
%TD*%
%TA.AperFunction,Conductor*%
%ADD17C,0.200000*%
%TD*%
%TA.AperFunction,Conductor*%
%ADD18C,0.500000*%
%TD*%
G04 APERTURE END LIST*
D10*
%TO.P,J2,1,Pin_1*%
%TO.N,Net-(J2-Pad1)*%
X76500000Y-47000000D03*
D11*
%TO.P,J2,2,Pin_2*%
%TO.N,GND*%
X76500000Y-49540000D03*
%TD*%
D10*
%TO.P,J1,1,Pin_1*%
%TO.N,Net-(D1-Pad1)*%
X76500000Y-39225000D03*
D11*
%TO.P,J1,2,Pin_2*%
%TO.N,Net-(J2-Pad1)*%
X76500000Y-41765000D03*
%TD*%
D12*
%TO.P,H3,1,1*%
%TO.N,GND*%
X77302944Y-56697056D03*
X80697056Y-56697056D03*
X79000000Y-52600000D03*
X76600000Y-55000000D03*
D13*
X79000000Y-55000000D03*
D12*
X80697056Y-53302944D03*
X81400000Y-55000000D03*
X79000000Y-57400000D03*
X77302944Y-53302944D03*
%TD*%
%TO.P,H2,1,1*%
%TO.N,GND*%
X112697056Y-34697056D03*
X108600000Y-33000000D03*
X112697056Y-31302944D03*
X109302944Y-31302944D03*
D13*
X111000000Y-33000000D03*
D12*
X109302944Y-34697056D03*
X111000000Y-35400000D03*
X111000000Y-30600000D03*
X113400000Y-33000000D03*
%TD*%
%TO.P,H1,1,1*%
%TO.N,GND*%
X80697056Y-34697056D03*
X77302944Y-34697056D03*
X79000000Y-35400000D03*
D13*
X79000000Y-33000000D03*
D12*
X81400000Y-33000000D03*
X77302944Y-31302944D03*
X76600000Y-33000000D03*
X79000000Y-30600000D03*
X80697056Y-31302944D03*
%TD*%
D10*
%TO.P,J3,1,Pin_1*%
%TO.N,+5V*%
X88200000Y-45775000D03*
D11*
%TO.P,J3,2,Pin_2*%
%TO.N,/POT_IN*%
X88200000Y-48315000D03*
%TO.P,J3,3,Pin_3*%
%TO.N,GND*%
X88200000Y-50855000D03*
%TD*%
D10*
%TO.P,J4,1,Pin_1*%
%TO.N,VCC*%
X113000000Y-39920000D03*
D11*
%TO.P,J4,2,Pin_2*%
%TO.N,GND*%
X113000000Y-42460000D03*
%TO.P,J4,3,Pin_3*%
%TO.N,/TACH_IN*%
X113000000Y-45000000D03*
%TO.P,J4,4,Pin_4*%
%TO.N,/FAN_PWM*%
X113000000Y-47540000D03*
%TD*%
D12*
%TO.P,H4,1,1*%
%TO.N,GND*%
X109302944Y-53302944D03*
D13*
X111000000Y-55000000D03*
D12*
X113400000Y-55000000D03*
X108600000Y-55000000D03*
X109302944Y-56697056D03*
X111000000Y-52600000D03*
X112697056Y-56697056D03*
X111000000Y-57400000D03*
X112697056Y-53302944D03*
%TD*%
D14*
%TO.P,D3,1,DOUT*%
%TO.N,Net-(D3-Pad1)*%
X81600000Y-48900000D03*
D15*
%TO.P,D3,2,VDD*%
%TO.N,+5V*%
X81600000Y-47630000D03*
%TO.P,D3,3,VSS*%
%TO.N,GND*%
X81600000Y-46360000D03*
%TO.P,D3,4,DIN*%
%TO.N,Net-(D3-Pad4)*%
X81600000Y-45090000D03*
%TD*%
D16*
%TO.N,GND*%
X80300000Y-51325000D03*
X78100000Y-45700000D03*
X78750000Y-49050000D03*
X89650000Y-43025000D03*
X83700000Y-41100000D03*
X84250000Y-44875000D03*
X106125000Y-35250000D03*
X107300000Y-34375000D03*
X114425000Y-34925000D03*
X114450000Y-39800000D03*
X113950000Y-43725000D03*
X113875000Y-46275000D03*
X112625000Y-49025000D03*
X114400000Y-49650000D03*
X114475000Y-53325000D03*
X110425000Y-51250000D03*
X106375000Y-52925000D03*
X99475000Y-49125000D03*
X100725000Y-48500000D03*
X102275000Y-49025000D03*
X107900000Y-50800000D03*
X108125000Y-49750000D03*
X110875000Y-46175000D03*
X111275000Y-43825000D03*
X110325000Y-40700000D03*
X110350000Y-42950000D03*
X109975000Y-45175000D03*
X108250000Y-45175000D03*
X106400000Y-45175000D03*
X104775000Y-45175000D03*
X102000000Y-42025000D03*
X101225000Y-38250000D03*
X99800000Y-38200000D03*
X100675000Y-43100000D03*
X100650000Y-41075000D03*
X87050000Y-51675000D03*
X89725000Y-49000000D03*
X85625000Y-49350000D03*
X86750000Y-48200000D03*
X88950000Y-47150000D03*
X91450000Y-46000000D03*
X89950000Y-45975000D03*
X89925000Y-47575000D03*
X93775000Y-48550000D03*
X97025000Y-48425000D03*
X97025000Y-50225000D03*
X93825000Y-50400000D03*
X93700000Y-46000000D03*
X97150000Y-46000000D03*
X99975000Y-45975000D03*
X101425000Y-45975000D03*
X103200000Y-45200000D03*
X103200000Y-44300000D03*
X103200000Y-43300000D03*
X103200000Y-42300000D03*
X103200000Y-41300000D03*
X103200000Y-40300000D03*
X103200000Y-39300000D03*
X75500000Y-34700000D03*
X79000000Y-36900000D03*
X82700000Y-34200000D03*
X75500000Y-37700000D03*
X78100000Y-43800000D03*
X78100000Y-40900000D03*
X79600000Y-43800000D03*
X84900000Y-38000000D03*
X83500000Y-38000000D03*
X84900000Y-42700000D03*
X81100000Y-42700000D03*
X82300000Y-39800000D03*
X84900000Y-39800000D03*
X86300000Y-43800000D03*
X87900000Y-42600000D03*
X91000000Y-43900000D03*
X97100000Y-43900000D03*
X95100000Y-43900000D03*
X93100000Y-43900000D03*
X91000000Y-42400000D03*
X99100000Y-42400000D03*
X93100000Y-42400000D03*
X95100000Y-42400000D03*
X97100000Y-42400000D03*
X97993404Y-40400000D03*
X97000000Y-40400000D03*
X96000000Y-40400000D03*
X95000000Y-40400000D03*
X93000000Y-40400000D03*
X94000000Y-40400000D03*
X92000000Y-40400000D03*
X91000000Y-40400000D03*
X87600000Y-36900000D03*
X87600000Y-36300000D03*
X87600000Y-35700000D03*
X84300000Y-36900000D03*
X84300000Y-36300000D03*
X84300000Y-35700000D03*
X83200000Y-46400000D03*
X84800000Y-47300000D03*
X86600000Y-46100000D03*
X83000000Y-48500000D03*
X84800000Y-51200000D03*
X82800000Y-53400000D03*
X75500000Y-53100000D03*
X76500000Y-51000000D03*
%TO.N,/SWIM*%
X96900000Y-51000000D03*
X107000000Y-50975500D03*
%TO.N,GND*%
X108000000Y-46700000D03*
%TO.N,+5V*%
X109300000Y-48900000D03*
X109600000Y-46600000D03*
%TO.N,/NRST*%
X106683369Y-46831989D03*
%TO.N,/UART_TX*%
X106644811Y-48057940D03*
%TO.N,+5V*%
X103754128Y-49148114D03*
%TO.N,/NRST*%
X100700000Y-49400000D03*
%TO.N,/UART_RX*%
X106011444Y-50211444D03*
%TO.N,/TACH_IN*%
X96900000Y-52300000D03*
X102037750Y-51775500D03*
%TO.N,/UART_TX*%
X100600000Y-51200000D03*
%TO.N,/UART_RX*%
X99728281Y-51025000D03*
%TD*%
D17*
%TO.N,/TACH_IN*%
X102037750Y-51775500D02*
X101213250Y-52600000D01*
X101213250Y-52600000D02*
X97200000Y-52600000D01*
X97200000Y-52600000D02*
X96900000Y-52300000D01*
%TO.N,/SWIM*%
X96900000Y-51000000D02*
X97800000Y-51900000D01*
X97800000Y-51900000D02*
X101000000Y-51900000D01*
X102600000Y-51100000D02*
X102900000Y-51400000D01*
X101000000Y-51900000D02*
X101800000Y-51100000D01*
X102900000Y-51400000D02*
X106575500Y-51400000D01*
X106575500Y-51400000D02*
X107000000Y-50975500D01*
X101800000Y-51100000D02*
X102600000Y-51100000D01*
%TO.N,/UART_TX*%
X101300000Y-50500000D02*
X102868628Y-50500000D01*
X100600000Y-51200000D02*
X101300000Y-50500000D01*
X106644811Y-50355189D02*
X106644811Y-48057940D01*
X102868628Y-50500000D02*
X103268628Y-50900000D01*
X103268628Y-50900000D02*
X106100000Y-50900000D01*
X106100000Y-50900000D02*
X106644811Y-50355189D01*
%TO.N,/UART_RX*%
X106011444Y-50211444D02*
X105722888Y-50500000D01*
X105722888Y-50500000D02*
X103434314Y-50500000D01*
X103434314Y-50500000D02*
X103034314Y-50100000D01*
X103034314Y-50100000D02*
X100653281Y-50100000D01*
X100653281Y-50100000D02*
X99728281Y-51025000D01*
%TO.N,/NRST*%
X100700000Y-49400000D02*
X100900000Y-49600000D01*
X105900000Y-47615358D02*
X106683369Y-46831989D01*
X100900000Y-49600000D02*
X103100000Y-49600000D01*
X103100000Y-49600000D02*
X103600000Y-50100000D01*
X103600000Y-50100000D02*
X104871437Y-50100000D01*
X104871437Y-50100000D02*
X105900000Y-49071437D01*
X105900000Y-49071437D02*
X105900000Y-47615358D01*
D18*
%TO.N,+5V*%
X109300000Y-48900000D02*
X108844699Y-48444699D01*
X108844699Y-48444699D02*
X108844699Y-47355301D01*
X108844699Y-47355301D02*
X109600000Y-46600000D01*
%TD*%
%TA.AperFunction,Conductor*%
%TO.N,Net-(J2-Pad1)*%
G36*
X77559191Y-40918907D02*
G01*
X77595155Y-40968407D01*
X77600000Y-40999000D01*
X77600000Y-47901000D01*
X77581093Y-47959191D01*
X77531593Y-47995155D01*
X77501000Y-48000000D01*
X75599000Y-48000000D01*
X75540809Y-47981093D01*
X75504845Y-47931593D01*
X75500000Y-47901000D01*
X75500000Y-40999000D01*
X75518907Y-40940809D01*
X75568407Y-40904845D01*
X75599000Y-40900000D01*
X77501000Y-40900000D01*
X77559191Y-40918907D01*
G37*
%TD.AperFunction*%
%TD*%
%TA.AperFunction,Conductor*%
%TO.N,GND*%
G36*
X79217170Y-29211169D02*
G01*
X79367561Y-29218557D01*
X79377220Y-29219509D01*
X79736446Y-29272794D01*
X79745964Y-29274688D01*
X79922664Y-29318949D01*
X80098217Y-29362923D01*
X80107514Y-29365743D01*
X80449427Y-29488082D01*
X80458403Y-29491800D01*
X80786678Y-29647062D01*
X80795246Y-29651642D01*
X81106721Y-29838333D01*
X81114787Y-29843722D01*
X81406490Y-30060064D01*
X81413971Y-30066205D01*
X81492837Y-30137684D01*
X81683048Y-30310082D01*
X81689918Y-30316952D01*
X81754609Y-30388327D01*
X81933795Y-30586029D01*
X81939936Y-30593510D01*
X82156278Y-30885213D01*
X82161667Y-30893279D01*
X82348358Y-31204754D01*
X82352938Y-31213322D01*
X82508200Y-31541597D01*
X82511918Y-31550573D01*
X82634257Y-31892486D01*
X82637077Y-31901783D01*
X82723819Y-32248072D01*
X82725311Y-32254030D01*
X82727207Y-32263559D01*
X82780491Y-32622776D01*
X82781443Y-32632439D01*
X82781567Y-32634962D01*
X82797906Y-32967541D01*
X82796859Y-32979339D01*
X82796842Y-32988776D01*
X82794344Y-32999641D01*
X82795862Y-33006350D01*
X82796320Y-33013925D01*
X82797551Y-33034281D01*
X82811551Y-33265726D01*
X82859537Y-33527577D01*
X82860426Y-33530429D01*
X82860426Y-33530430D01*
X82934750Y-33768941D01*
X82938736Y-33781734D01*
X82939960Y-33784453D01*
X82939962Y-33784459D01*
X83046766Y-34021767D01*
X83046770Y-34021775D01*
X83047993Y-34024492D01*
X83185714Y-34252311D01*
X83349892Y-34461868D01*
X83538132Y-34650108D01*
X83540486Y-34651952D01*
X83729271Y-34799856D01*
X83747689Y-34814286D01*
X83975508Y-34952007D01*
X83978225Y-34953230D01*
X83978233Y-34953234D01*
X84215541Y-35060038D01*
X84215547Y-35060040D01*
X84218266Y-35061264D01*
X84221116Y-35062152D01*
X84221121Y-35062154D01*
X84382918Y-35112572D01*
X84472423Y-35140463D01*
X84475359Y-35141001D01*
X84475363Y-35141002D01*
X84639750Y-35171127D01*
X84734274Y-35188449D01*
X84737262Y-35188630D01*
X84737264Y-35188630D01*
X84806843Y-35192838D01*
X84986748Y-35203720D01*
X84992081Y-35204188D01*
X84993816Y-35204388D01*
X84999282Y-35205655D01*
X85000000Y-35205656D01*
X85005452Y-35204412D01*
X85005455Y-35204412D01*
X85011734Y-35202980D01*
X85033752Y-35200500D01*
X104965719Y-35200500D01*
X104988074Y-35203057D01*
X104999282Y-35205655D01*
X105000000Y-35205656D01*
X105005459Y-35204411D01*
X105007228Y-35204213D01*
X105012246Y-35203781D01*
X105201621Y-35192327D01*
X105262736Y-35188630D01*
X105262738Y-35188630D01*
X105265726Y-35188449D01*
X105360250Y-35171127D01*
X105524637Y-35141002D01*
X105524641Y-35141001D01*
X105527577Y-35140463D01*
X105617082Y-35112572D01*
X105778879Y-35062154D01*
X105778884Y-35062152D01*
X105781734Y-35061264D01*
X105784453Y-35060040D01*
X105784459Y-35060038D01*
X106021767Y-34953234D01*
X106021775Y-34953230D01*
X106024492Y-34952007D01*
X106252311Y-34814286D01*
X106270730Y-34799856D01*
X106459514Y-34651952D01*
X106461868Y-34650108D01*
X106650108Y-34461868D01*
X106814286Y-34252311D01*
X106952007Y-34024492D01*
X106953230Y-34021775D01*
X106953234Y-34021767D01*
X107060038Y-33784459D01*
X107060040Y-33784453D01*
X107061264Y-33781734D01*
X107065251Y-33768941D01*
X107139574Y-33530430D01*
X107139574Y-33530429D01*
X107140463Y-33527577D01*
X107188449Y-33265726D01*
X107203718Y-33013290D01*
X107204186Y-33007953D01*
X107204390Y-33006176D01*
X107205655Y-33000718D01*
X107205656Y-33000000D01*
X107204412Y-32994548D01*
X107203970Y-32990596D01*
X107541083Y-32990596D01*
X107559740Y-33358893D01*
X107560300Y-33364219D01*
X107618623Y-33728340D01*
X107619755Y-33733576D01*
X107717063Y-34089271D01*
X107718751Y-34094346D01*
X107853905Y-34437456D01*
X107856130Y-34442316D01*
X108027550Y-34768822D01*
X108030288Y-34773417D01*
X108235967Y-35079499D01*
X108239188Y-35083773D01*
X108374379Y-35244317D01*
X108385702Y-35251365D01*
X108388697Y-35251150D01*
X108391495Y-35249295D01*
X110629704Y-33011086D01*
X110634946Y-33000797D01*
X111364242Y-33000797D01*
X111365038Y-33005828D01*
X113604264Y-35245054D01*
X113616147Y-35251108D01*
X113619383Y-35250596D01*
X113621652Y-35248814D01*
X113738838Y-35112572D01*
X113742106Y-35108328D01*
X113950983Y-34804410D01*
X113953762Y-34799856D01*
X114128590Y-34475165D01*
X114130874Y-34470313D01*
X114269610Y-34128646D01*
X114271352Y-34123588D01*
X114372375Y-33768941D01*
X114373566Y-33763704D01*
X114435697Y-33400222D01*
X114436313Y-33394891D01*
X114458902Y-33025569D01*
X114458994Y-33022726D01*
X114459068Y-33001423D01*
X114458996Y-32998584D01*
X114438985Y-32629090D01*
X114438410Y-32623789D01*
X114378813Y-32259852D01*
X114377665Y-32254634D01*
X114279118Y-31899286D01*
X114277407Y-31894200D01*
X114141061Y-31551578D01*
X114138815Y-31546716D01*
X113966255Y-31220809D01*
X113963504Y-31216230D01*
X113756759Y-30910869D01*
X113753519Y-30906601D01*
X113625576Y-30755735D01*
X113614227Y-30748726D01*
X113611144Y-30748957D01*
X113608479Y-30750731D01*
X111370296Y-32988914D01*
X111364242Y-33000797D01*
X110634946Y-33000797D01*
X110635758Y-32999203D01*
X110634962Y-32994172D01*
X108395710Y-30754920D01*
X108383827Y-30748866D01*
X108380682Y-30749364D01*
X108378291Y-30751248D01*
X108253797Y-30897012D01*
X108250556Y-30901251D01*
X108042742Y-31205895D01*
X108039972Y-31210468D01*
X107866277Y-31535769D01*
X107864015Y-31540620D01*
X107726468Y-31882779D01*
X107724748Y-31887831D01*
X107624957Y-32242851D01*
X107623790Y-32248072D01*
X107562928Y-32611770D01*
X107562329Y-32617101D01*
X107541102Y-32985260D01*
X107541083Y-32990596D01*
X107203970Y-32990596D01*
X107203791Y-32988995D01*
X107203941Y-32988978D01*
X107202082Y-32967805D01*
X107218394Y-32635758D01*
X107218558Y-32632437D01*
X107219509Y-32622775D01*
X107221142Y-32611770D01*
X107272794Y-32263554D01*
X107274689Y-32254030D01*
X107276182Y-32248072D01*
X107362923Y-31901783D01*
X107365743Y-31892486D01*
X107488082Y-31550573D01*
X107491800Y-31541597D01*
X107647062Y-31213322D01*
X107651642Y-31204754D01*
X107838333Y-30893279D01*
X107843722Y-30885213D01*
X108060064Y-30593510D01*
X108066205Y-30586029D01*
X108245391Y-30388327D01*
X108250000Y-30383242D01*
X108746512Y-30383242D01*
X108747081Y-30387679D01*
X108747537Y-30388327D01*
X110988914Y-32629704D01*
X111000797Y-32635758D01*
X111005828Y-32634962D01*
X113247798Y-30392992D01*
X113253852Y-30381109D01*
X113253138Y-30376601D01*
X113252761Y-30376095D01*
X113243833Y-30367623D01*
X113239770Y-30364165D01*
X112946415Y-30140689D01*
X112941993Y-30137684D01*
X112626232Y-29947205D01*
X112621505Y-29944692D01*
X112287024Y-29789431D01*
X112282048Y-29787440D01*
X111932752Y-29669210D01*
X111927589Y-29667768D01*
X111567574Y-29587955D01*
X111562294Y-29587081D01*
X111195746Y-29546614D01*
X111190423Y-29546316D01*
X110821645Y-29545673D01*
X110816297Y-29545953D01*
X110449630Y-29585139D01*
X110444343Y-29585994D01*
X110084032Y-29664555D01*
X110078884Y-29665973D01*
X109729163Y-29782988D01*
X109724203Y-29784952D01*
X109389177Y-29939047D01*
X109384429Y-29941550D01*
X109068003Y-30130927D01*
X109063584Y-30133908D01*
X108769447Y-30356361D01*
X108765364Y-30359813D01*
X108752918Y-30371542D01*
X108746512Y-30383242D01*
X108250000Y-30383242D01*
X108310082Y-30316952D01*
X108316952Y-30310082D01*
X108507163Y-30137684D01*
X108586029Y-30066205D01*
X108593510Y-30060064D01*
X108885213Y-29843722D01*
X108893279Y-29838333D01*
X109204754Y-29651642D01*
X109213322Y-29647062D01*
X109541597Y-29491800D01*
X109550573Y-29488082D01*
X109892486Y-29365743D01*
X109901783Y-29362923D01*
X110077336Y-29318949D01*
X110254036Y-29274688D01*
X110263554Y-29272794D01*
X110622780Y-29219509D01*
X110632439Y-29218557D01*
X110782830Y-29211169D01*
X110995142Y-29200739D01*
X111004858Y-29200739D01*
X111217170Y-29211169D01*
X111367561Y-29218557D01*
X111377220Y-29219509D01*
X111736446Y-29272794D01*
X111745964Y-29274688D01*
X111922664Y-29318949D01*
X112098217Y-29362923D01*
X112107514Y-29365743D01*
X112449427Y-29488082D01*
X112458403Y-29491800D01*
X112786678Y-29647062D01*
X112795246Y-29651642D01*
X113106721Y-29838333D01*
X113114787Y-29843722D01*
X113406490Y-30060064D01*
X113413971Y-30066205D01*
X113492837Y-30137684D01*
X113683048Y-30310082D01*
X113689918Y-30316952D01*
X113754609Y-30388327D01*
X113933795Y-30586029D01*
X113939936Y-30593510D01*
X114156278Y-30885213D01*
X114161667Y-30893279D01*
X114348358Y-31204754D01*
X114352938Y-31213322D01*
X114508200Y-31541597D01*
X114511918Y-31550573D01*
X114634257Y-31892486D01*
X114637077Y-31901783D01*
X114723819Y-32248072D01*
X114725311Y-32254030D01*
X114727207Y-32263559D01*
X114780491Y-32622776D01*
X114781443Y-32632439D01*
X114781567Y-32634962D01*
X114797906Y-32967541D01*
X114796859Y-32979339D01*
X114796842Y-32988777D01*
X114794344Y-32999641D01*
X114796804Y-33010513D01*
X114797059Y-33011638D01*
X114799500Y-33033488D01*
X114799500Y-54965983D01*
X114796982Y-54988169D01*
X114794344Y-54999641D01*
X114796805Y-55010518D01*
X114796791Y-55018820D01*
X114797931Y-55031937D01*
X114781567Y-55365038D01*
X114781443Y-55367556D01*
X114780491Y-55377220D01*
X114728409Y-55728340D01*
X114727207Y-55736441D01*
X114725311Y-55745970D01*
X114637077Y-56098217D01*
X114634257Y-56107514D01*
X114511918Y-56449427D01*
X114508200Y-56458403D01*
X114352938Y-56786678D01*
X114348358Y-56795246D01*
X114161667Y-57106721D01*
X114156278Y-57114787D01*
X113939936Y-57406490D01*
X113933795Y-57413971D01*
X113791749Y-57570695D01*
X113689918Y-57683048D01*
X113683048Y-57689918D01*
X113570695Y-57791749D01*
X113413971Y-57933795D01*
X113406490Y-57939936D01*
X113114787Y-58156278D01*
X113106721Y-58161667D01*
X112795246Y-58348358D01*
X112786678Y-58352938D01*
X112458403Y-58508200D01*
X112449427Y-58511918D01*
X112107514Y-58634257D01*
X112098217Y-58637077D01*
X111922664Y-58681051D01*
X111745964Y-58725312D01*
X111736446Y-58727206D01*
X111377220Y-58780491D01*
X111367561Y-58781443D01*
X111217170Y-58788831D01*
X111004858Y-58799261D01*
X110995142Y-58799261D01*
X110782830Y-58788831D01*
X110632439Y-58781443D01*
X110622780Y-58780491D01*
X110263554Y-58727206D01*
X110254036Y-58725312D01*
X110077336Y-58681051D01*
X109901783Y-58637077D01*
X109892486Y-58634257D01*
X109550573Y-58511918D01*
X109541597Y-58508200D01*
X109213322Y-58352938D01*
X109204754Y-58348358D01*
X108893279Y-58161667D01*
X108885213Y-58156278D01*
X108593510Y-57939936D01*
X108586029Y-57933795D01*
X108429305Y-57791749D01*
X108316952Y-57689918D01*
X108310082Y-57683048D01*
X108252313Y-57619310D01*
X108745729Y-57619310D01*
X108746457Y-57623908D01*
X108746738Y-57624286D01*
X108746989Y-57624526D01*
X108751048Y-57628005D01*
X109043610Y-57852495D01*
X109048033Y-57855523D01*
X109363118Y-58047098D01*
X109367840Y-58049630D01*
X109701773Y-58206056D01*
X109706745Y-58208066D01*
X110055631Y-58327515D01*
X110060778Y-58328971D01*
X110420530Y-58410045D01*
X110425786Y-58410934D01*
X110792196Y-58452681D01*
X110797532Y-58452998D01*
X111166300Y-58454929D01*
X111171636Y-58454668D01*
X111538466Y-58416760D01*
X111543725Y-58415927D01*
X111904321Y-58338623D01*
X111909473Y-58337223D01*
X112259593Y-58221431D01*
X112264570Y-58219480D01*
X112600141Y-58066552D01*
X112604877Y-58064076D01*
X112921967Y-57875801D01*
X112926402Y-57872833D01*
X113221316Y-57651406D01*
X113225396Y-57647982D01*
X113246686Y-57628059D01*
X113253132Y-57616382D01*
X113252590Y-57612034D01*
X113252042Y-57611252D01*
X111011086Y-55370296D01*
X110999203Y-55364242D01*
X110994172Y-55365038D01*
X108751783Y-57607427D01*
X108745729Y-57619310D01*
X108252313Y-57619310D01*
X108208251Y-57570695D01*
X108066205Y-57413971D01*
X108060064Y-57406490D01*
X107843722Y-57114787D01*
X107838333Y-57106721D01*
X107651642Y-56795246D01*
X107647062Y-56786678D01*
X107491800Y-56458403D01*
X107488082Y-56449427D01*
X107365743Y-56107514D01*
X107362923Y-56098217D01*
X107274689Y-55745970D01*
X107272793Y-55736441D01*
X107272368Y-55733576D01*
X107219508Y-55377218D01*
X107218557Y-55367557D01*
X107218434Y-55365038D01*
X107202108Y-55032719D01*
X107203983Y-55011782D01*
X107203748Y-55011755D01*
X107204390Y-55006176D01*
X107205655Y-55000718D01*
X107205656Y-55000000D01*
X107204411Y-54994543D01*
X107204213Y-54992772D01*
X107204026Y-54990596D01*
X107541083Y-54990596D01*
X107559740Y-55358893D01*
X107560300Y-55364219D01*
X107618623Y-55728340D01*
X107619755Y-55733576D01*
X107717063Y-56089271D01*
X107718751Y-56094346D01*
X107853905Y-56437456D01*
X107856130Y-56442316D01*
X108027550Y-56768822D01*
X108030288Y-56773417D01*
X108235967Y-57079499D01*
X108239188Y-57083773D01*
X108374379Y-57244317D01*
X108385702Y-57251365D01*
X108388697Y-57251150D01*
X108391495Y-57249295D01*
X110629704Y-55011086D01*
X110634946Y-55000797D01*
X111364242Y-55000797D01*
X111365038Y-55005828D01*
X113604264Y-57245054D01*
X113616147Y-57251108D01*
X113619383Y-57250596D01*
X113621652Y-57248814D01*
X113738838Y-57112572D01*
X113742106Y-57108328D01*
X113950983Y-56804410D01*
X113953762Y-56799856D01*
X114128590Y-56475165D01*
X114130874Y-56470313D01*
X114269610Y-56128646D01*
X114271352Y-56123588D01*
X114372375Y-55768941D01*
X114373566Y-55763704D01*
X114435697Y-55400222D01*
X114436313Y-55394891D01*
X114458902Y-55025569D01*
X114458994Y-55022726D01*
X114459068Y-55001423D01*
X114458996Y-54998584D01*
X114438985Y-54629090D01*
X114438410Y-54623789D01*
X114378813Y-54259852D01*
X114377665Y-54254634D01*
X114279118Y-53899286D01*
X114277407Y-53894200D01*
X114141061Y-53551578D01*
X114138815Y-53546716D01*
X113966255Y-53220809D01*
X113963504Y-53216230D01*
X113756759Y-52910869D01*
X113753519Y-52906601D01*
X113625576Y-52755735D01*
X113614227Y-52748726D01*
X113611144Y-52748957D01*
X113608479Y-52750731D01*
X111370296Y-54988914D01*
X111364242Y-55000797D01*
X110634946Y-55000797D01*
X110635758Y-54999203D01*
X110634962Y-54994172D01*
X108395710Y-52754920D01*
X108383827Y-52748866D01*
X108380682Y-52749364D01*
X108378291Y-52751248D01*
X108253797Y-52897012D01*
X108250556Y-52901251D01*
X108042742Y-53205895D01*
X108039972Y-53210468D01*
X107866277Y-53535769D01*
X107864015Y-53540620D01*
X107726468Y-53882779D01*
X107724748Y-53887831D01*
X107624957Y-54242851D01*
X107623790Y-54248072D01*
X107562928Y-54611770D01*
X107562329Y-54617101D01*
X107541102Y-54985260D01*
X107541083Y-54990596D01*
X107204026Y-54990596D01*
X107203780Y-54987737D01*
X107203631Y-54985260D01*
X107188449Y-54734274D01*
X107140463Y-54472423D01*
X107061264Y-54218266D01*
X107060038Y-54215541D01*
X106953234Y-53978233D01*
X106953230Y-53978225D01*
X106952007Y-53975508D01*
X106814286Y-53747689D01*
X106650108Y-53538132D01*
X106461868Y-53349892D01*
X106349448Y-53261816D01*
X106254669Y-53187561D01*
X106254665Y-53187558D01*
X106252311Y-53185714D01*
X106024492Y-53047993D01*
X106021775Y-53046770D01*
X106021767Y-53046766D01*
X105784459Y-52939962D01*
X105784453Y-52939960D01*
X105781734Y-52938736D01*
X105778884Y-52937848D01*
X105778879Y-52937846D01*
X105530430Y-52860426D01*
X105530429Y-52860426D01*
X105527577Y-52859537D01*
X105524641Y-52858999D01*
X105524637Y-52858998D01*
X105360250Y-52828873D01*
X105265726Y-52811551D01*
X105262738Y-52811370D01*
X105262736Y-52811370D01*
X105193157Y-52807162D01*
X105013252Y-52796280D01*
X105007919Y-52795812D01*
X105006184Y-52795612D01*
X105000718Y-52794345D01*
X105000000Y-52794344D01*
X104994548Y-52795588D01*
X104994545Y-52795588D01*
X104988266Y-52797020D01*
X104966248Y-52799500D01*
X101677729Y-52799500D01*
X101619538Y-52780593D01*
X101583574Y-52731093D01*
X101583574Y-52669907D01*
X101607725Y-52630496D01*
X101854979Y-52383242D01*
X108746512Y-52383242D01*
X108747081Y-52387679D01*
X108747537Y-52388327D01*
X110988914Y-54629704D01*
X111000797Y-54635758D01*
X111005828Y-54634962D01*
X113247798Y-52392992D01*
X113253852Y-52381109D01*
X113253138Y-52376601D01*
X113252761Y-52376095D01*
X113243833Y-52367623D01*
X113239770Y-52364165D01*
X112946415Y-52140689D01*
X112941993Y-52137684D01*
X112626232Y-51947205D01*
X112621505Y-51944692D01*
X112287024Y-51789431D01*
X112282048Y-51787440D01*
X111932752Y-51669210D01*
X111927589Y-51667768D01*
X111567574Y-51587955D01*
X111562294Y-51587081D01*
X111195746Y-51546614D01*
X111190423Y-51546316D01*
X110821645Y-51545673D01*
X110816297Y-51545953D01*
X110449630Y-51585139D01*
X110444343Y-51585994D01*
X110084032Y-51664555D01*
X110078884Y-51665973D01*
X109729163Y-51782988D01*
X109724203Y-51784952D01*
X109389177Y-51939047D01*
X109384429Y-51941550D01*
X109068003Y-52130927D01*
X109063584Y-52133908D01*
X108769447Y-52356361D01*
X108765364Y-52359813D01*
X108752918Y-52371542D01*
X108746512Y-52383242D01*
X101854979Y-52383242D01*
X101982821Y-52255400D01*
X102037338Y-52227623D01*
X102054637Y-52226421D01*
X102070217Y-52226707D01*
X102086952Y-52227014D01*
X102086954Y-52227014D01*
X102094005Y-52227143D01*
X102100808Y-52225288D01*
X102100810Y-52225288D01*
X102142578Y-52213900D01*
X102218505Y-52193200D01*
X102328474Y-52125679D01*
X102337343Y-52115881D01*
X102410340Y-52035235D01*
X102410340Y-52035234D01*
X102415072Y-52030007D01*
X102465436Y-51926056D01*
X102468262Y-51920224D01*
X102468262Y-51920223D01*
X102471338Y-51913875D01*
X102485979Y-51826847D01*
X102492113Y-51790391D01*
X102492113Y-51790386D01*
X102492747Y-51786620D01*
X102492883Y-51775500D01*
X102486172Y-51728636D01*
X102475232Y-51652245D01*
X102485699Y-51591962D01*
X102529601Y-51549344D01*
X102590168Y-51540670D01*
X102643236Y-51568207D01*
X102649680Y-51574651D01*
X102652380Y-51577780D01*
X102654575Y-51582269D01*
X102661278Y-51588487D01*
X102690822Y-51615893D01*
X102693498Y-51618469D01*
X102707277Y-51632248D01*
X102710987Y-51634793D01*
X102714900Y-51638229D01*
X102736646Y-51658401D01*
X102745134Y-51661788D01*
X102745135Y-51661788D01*
X102747336Y-51662666D01*
X102766652Y-51672980D01*
X102768607Y-51674321D01*
X102768610Y-51674322D01*
X102776146Y-51679492D01*
X102802058Y-51685641D01*
X102815884Y-51690014D01*
X102834132Y-51697294D01*
X102834134Y-51697294D01*
X102840622Y-51699883D01*
X102846915Y-51700500D01*
X102853084Y-51700500D01*
X102875943Y-51703175D01*
X102876173Y-51703230D01*
X102876175Y-51703230D01*
X102885066Y-51705340D01*
X102913988Y-51701404D01*
X102927337Y-51700500D01*
X106521992Y-51700500D01*
X106526117Y-51700803D01*
X106530842Y-51702425D01*
X106580261Y-51700570D01*
X106583974Y-51700500D01*
X106603448Y-51700500D01*
X106607878Y-51699675D01*
X106613071Y-51699339D01*
X106629102Y-51698737D01*
X106633575Y-51698569D01*
X106642708Y-51698226D01*
X106651102Y-51694620D01*
X106651105Y-51694619D01*
X106653283Y-51693683D01*
X106674234Y-51687317D01*
X106685553Y-51685209D01*
X106708229Y-51671232D01*
X106721096Y-51664548D01*
X106739142Y-51656795D01*
X106739143Y-51656794D01*
X106745563Y-51654036D01*
X106750449Y-51650022D01*
X106754813Y-51645658D01*
X106772868Y-51631387D01*
X106780848Y-51626468D01*
X106798518Y-51603231D01*
X106807310Y-51593161D01*
X106945071Y-51455400D01*
X106999588Y-51427623D01*
X107016887Y-51426421D01*
X107032467Y-51426707D01*
X107049202Y-51427014D01*
X107049204Y-51427014D01*
X107056255Y-51427143D01*
X107063058Y-51425288D01*
X107063060Y-51425288D01*
X107116214Y-51410796D01*
X107180755Y-51393200D01*
X107290724Y-51325679D01*
X107377322Y-51230007D01*
X107433588Y-51113875D01*
X107448540Y-51025000D01*
X107454363Y-50990391D01*
X107454363Y-50990386D01*
X107454997Y-50986620D01*
X107455133Y-50975500D01*
X107436839Y-50847759D01*
X107383428Y-50730288D01*
X107321730Y-50658684D01*
X107303798Y-50637872D01*
X107303797Y-50637871D01*
X107299193Y-50632528D01*
X107293276Y-50628693D01*
X107293274Y-50628691D01*
X107209446Y-50574358D01*
X107190906Y-50562341D01*
X107184150Y-50560321D01*
X107184149Y-50560320D01*
X107117455Y-50540374D01*
X107067273Y-50525366D01*
X107057235Y-50525305D01*
X107042132Y-50525212D01*
X106984058Y-50505949D01*
X106948398Y-50456229D01*
X106946965Y-50414790D01*
X106944694Y-50414567D01*
X106945076Y-50410675D01*
X106945076Y-50410667D01*
X106945311Y-50408274D01*
X106945311Y-50402105D01*
X106947986Y-50379246D01*
X106948041Y-50379016D01*
X106948041Y-50379014D01*
X106950151Y-50370123D01*
X106946215Y-50341201D01*
X106945311Y-50327852D01*
X106945311Y-48459009D01*
X108389335Y-48459009D01*
X108390664Y-48466285D01*
X108390664Y-48466288D01*
X108392998Y-48479065D01*
X108397836Y-48505553D01*
X108399947Y-48517113D01*
X108400457Y-48520175D01*
X108409250Y-48578661D01*
X108412378Y-48585174D01*
X108413674Y-48592272D01*
X108440529Y-48643971D01*
X108440897Y-48644679D01*
X108442287Y-48647461D01*
X108464686Y-48694107D01*
X108464688Y-48694110D01*
X108467890Y-48700778D01*
X108471996Y-48705220D01*
X108473519Y-48707480D01*
X108476120Y-48712487D01*
X108480424Y-48717527D01*
X108518056Y-48755159D01*
X108520750Y-48757962D01*
X108554823Y-48794823D01*
X108554826Y-48794825D01*
X108559845Y-48800255D01*
X108565909Y-48803777D01*
X108573234Y-48810337D01*
X108964358Y-49201461D01*
X108970137Y-49207763D01*
X108992100Y-49233892D01*
X108992103Y-49233894D01*
X108996639Y-49239291D01*
X109002510Y-49243199D01*
X109039357Y-49267726D01*
X109043318Y-49270505D01*
X109061623Y-49284025D01*
X109086817Y-49302634D01*
X109093798Y-49305086D01*
X109095217Y-49305837D01*
X109098882Y-49307350D01*
X109104060Y-49310796D01*
X109110788Y-49312898D01*
X109110790Y-49312899D01*
X109156761Y-49327261D01*
X109160041Y-49328349D01*
X109207651Y-49345069D01*
X109207652Y-49345069D01*
X109214631Y-49347520D01*
X109222024Y-49347810D01*
X109223336Y-49348060D01*
X109227233Y-49349278D01*
X109286468Y-49350364D01*
X109288458Y-49350421D01*
X109349994Y-49352838D01*
X109354614Y-49351613D01*
X109356255Y-49351643D01*
X109418174Y-49334762D01*
X109418741Y-49334610D01*
X109467216Y-49321757D01*
X109480937Y-49318119D01*
X109535605Y-49284025D01*
X109536192Y-49283662D01*
X109563898Y-49266650D01*
X109590724Y-49250179D01*
X109591824Y-49248964D01*
X109595882Y-49246433D01*
X109636206Y-49199964D01*
X109637568Y-49198427D01*
X109672589Y-49159736D01*
X109677322Y-49154507D01*
X109679102Y-49150831D01*
X109679817Y-49149706D01*
X109684667Y-49144117D01*
X109687660Y-49137348D01*
X109687662Y-49137344D01*
X109708055Y-49091214D01*
X109709496Y-49088101D01*
X109726410Y-49053191D01*
X109730514Y-49044720D01*
X109730514Y-49044719D01*
X109733588Y-49038375D01*
X109734619Y-49032243D01*
X109736023Y-49028542D01*
X109736448Y-49026989D01*
X109739442Y-49020217D01*
X109743220Y-48988302D01*
X109745801Y-48966494D01*
X109746487Y-48961707D01*
X109752919Y-48923472D01*
X109754997Y-48911120D01*
X109755133Y-48900000D01*
X109754636Y-48896528D01*
X109754545Y-48894646D01*
X109754494Y-48893036D01*
X109755364Y-48885690D01*
X109754034Y-48878407D01*
X109751145Y-48862585D01*
X109759291Y-48801944D01*
X109801525Y-48757673D01*
X109848534Y-48745800D01*
X109883547Y-48745800D01*
X110012739Y-48730738D01*
X110018145Y-48728776D01*
X110018148Y-48728775D01*
X110170804Y-48673363D01*
X110176212Y-48671400D01*
X110181022Y-48668247D01*
X110181025Y-48668245D01*
X110284740Y-48600246D01*
X110321650Y-48576047D01*
X110330972Y-48566207D01*
X110345915Y-48550432D01*
X110441251Y-48449793D01*
X110528599Y-48299412D01*
X110562330Y-48188041D01*
X110577343Y-48138474D01*
X110577343Y-48138471D01*
X110579010Y-48132969D01*
X110589778Y-47959393D01*
X110560327Y-47787996D01*
X110546453Y-47755389D01*
X110494486Y-47633261D01*
X110492235Y-47627971D01*
X110416650Y-47525262D01*
X111944520Y-47525262D01*
X111949952Y-47589954D01*
X111961115Y-47722879D01*
X111961759Y-47730553D01*
X111963092Y-47735201D01*
X111963092Y-47735202D01*
X112015331Y-47917380D01*
X112018544Y-47928586D01*
X112020759Y-47932896D01*
X112038905Y-47968205D01*
X112112712Y-48111818D01*
X112240677Y-48273270D01*
X112244357Y-48276402D01*
X112244359Y-48276404D01*
X112328197Y-48347755D01*
X112397564Y-48406791D01*
X112401787Y-48409151D01*
X112401791Y-48409154D01*
X112509722Y-48469474D01*
X112577398Y-48507297D01*
X112581996Y-48508791D01*
X112768724Y-48569463D01*
X112768726Y-48569464D01*
X112773329Y-48570959D01*
X112977894Y-48595351D01*
X112982716Y-48594980D01*
X112982719Y-48594980D01*
X113061122Y-48588947D01*
X113183300Y-48579546D01*
X113381725Y-48524145D01*
X113386038Y-48521966D01*
X113386044Y-48521964D01*
X113561289Y-48433441D01*
X113561291Y-48433440D01*
X113565610Y-48431258D01*
X113606726Y-48399135D01*
X113724135Y-48307406D01*
X113724139Y-48307402D01*
X113727951Y-48304424D01*
X113732278Y-48299412D01*
X113793436Y-48228558D01*
X113862564Y-48148472D01*
X113873269Y-48129628D01*
X113961934Y-47973550D01*
X113961935Y-47973547D01*
X113964323Y-47969344D01*
X113966189Y-47963737D01*
X114027824Y-47778454D01*
X114027824Y-47778452D01*
X114029351Y-47773863D01*
X114030960Y-47761132D01*
X114054823Y-47572228D01*
X114055171Y-47569474D01*
X114055335Y-47557781D01*
X114055544Y-47542776D01*
X114055583Y-47540000D01*
X114055313Y-47537244D01*
X114035952Y-47339780D01*
X114035951Y-47339776D01*
X114035480Y-47334970D01*
X114028512Y-47311889D01*
X113981104Y-47154870D01*
X113975935Y-47137749D01*
X113879218Y-46955849D01*
X113749011Y-46796200D01*
X113721574Y-46773502D01*
X113594002Y-46667965D01*
X113594000Y-46667964D01*
X113590275Y-46664882D01*
X113448996Y-46588493D01*
X113413309Y-46569197D01*
X113413308Y-46569197D01*
X113409055Y-46566897D01*
X113303451Y-46534207D01*
X113216875Y-46507407D01*
X113216871Y-46507406D01*
X113212254Y-46505977D01*
X113207446Y-46505472D01*
X113207443Y-46505471D01*
X113012185Y-46484949D01*
X113012183Y-46484949D01*
X113007369Y-46484443D01*
X112957108Y-46489017D01*
X112807022Y-46502675D01*
X112807017Y-46502676D01*
X112802203Y-46503114D01*
X112604572Y-46561280D01*
X112600288Y-46563519D01*
X112600287Y-46563520D01*
X112566027Y-46581431D01*
X112422002Y-46656726D01*
X112418231Y-46659758D01*
X112265220Y-46782781D01*
X112265217Y-46782783D01*
X112261447Y-46785815D01*
X112258333Y-46789526D01*
X112258332Y-46789527D01*
X112155608Y-46911949D01*
X112129024Y-46943630D01*
X112126689Y-46947878D01*
X112126688Y-46947879D01*
X112101504Y-46993688D01*
X112029776Y-47124162D01*
X112028313Y-47128775D01*
X112028311Y-47128779D01*
X111979778Y-47281777D01*
X111967484Y-47320532D01*
X111966944Y-47325344D01*
X111966944Y-47325345D01*
X111947374Y-47499822D01*
X111944520Y-47525262D01*
X110416650Y-47525262D01*
X110398351Y-47500396D01*
X110392566Y-47492535D01*
X110392565Y-47492534D01*
X110389157Y-47487903D01*
X110384775Y-47484181D01*
X110384773Y-47484178D01*
X110261006Y-47379031D01*
X110261005Y-47379030D01*
X110256620Y-47375305D01*
X110167406Y-47329750D01*
X110106859Y-47298833D01*
X110106856Y-47298832D01*
X110101735Y-47296217D01*
X110096149Y-47294850D01*
X109937090Y-47255928D01*
X109937087Y-47255927D01*
X109932810Y-47254881D01*
X109928412Y-47254608D01*
X109928411Y-47254608D01*
X109923349Y-47254294D01*
X109923347Y-47254294D01*
X109921833Y-47254200D01*
X109821911Y-47254200D01*
X109763720Y-47235293D01*
X109727756Y-47185793D01*
X109727756Y-47124607D01*
X109751907Y-47085196D01*
X109872758Y-46964345D01*
X109879523Y-46958179D01*
X109884714Y-46953869D01*
X109890724Y-46950179D01*
X109925329Y-46911948D01*
X109928722Y-46908381D01*
X109942487Y-46894616D01*
X109944677Y-46891651D01*
X109944685Y-46891642D01*
X109946080Y-46889753D01*
X109952309Y-46882142D01*
X109972590Y-46859735D01*
X109977322Y-46854507D01*
X109983254Y-46842264D01*
X109992708Y-46826622D01*
X110002634Y-46813183D01*
X110005085Y-46806204D01*
X110005087Y-46806200D01*
X110014707Y-46778805D01*
X110019021Y-46768441D01*
X110030512Y-46744724D01*
X110030512Y-46744723D01*
X110033588Y-46738375D01*
X110036487Y-46721144D01*
X110040707Y-46704770D01*
X110045068Y-46692352D01*
X110045070Y-46692344D01*
X110047519Y-46685369D01*
X110048799Y-46652791D01*
X110050095Y-46640256D01*
X110051959Y-46629181D01*
X110053858Y-46617892D01*
X110054363Y-46614890D01*
X110054363Y-46614887D01*
X110054997Y-46611120D01*
X110055133Y-46600000D01*
X110053068Y-46585576D01*
X110052144Y-46567667D01*
X110052838Y-46550006D01*
X110050942Y-46542857D01*
X110050942Y-46542853D01*
X110043745Y-46515709D01*
X110041438Y-46504371D01*
X110037839Y-46479240D01*
X110037839Y-46479239D01*
X110036839Y-46472259D01*
X110029207Y-46455472D01*
X110023637Y-46439874D01*
X110018119Y-46419063D01*
X110001372Y-46392210D01*
X109995260Y-46380811D01*
X109983428Y-46354788D01*
X109968869Y-46337891D01*
X109959867Y-46325659D01*
X109946433Y-46304118D01*
X109940842Y-46299266D01*
X109940840Y-46299264D01*
X109925442Y-46285902D01*
X109915331Y-46275756D01*
X109903799Y-46262373D01*
X109903798Y-46262372D01*
X109899193Y-46257028D01*
X109893273Y-46253191D01*
X109893271Y-46253189D01*
X109877234Y-46242794D01*
X109866199Y-46234494D01*
X109849709Y-46220185D01*
X109849707Y-46220184D01*
X109844117Y-46215333D01*
X109822217Y-46205651D01*
X109808406Y-46198184D01*
X109790906Y-46186841D01*
X109784151Y-46184821D01*
X109784143Y-46184817D01*
X109762135Y-46178235D01*
X109750476Y-46173934D01*
X109726984Y-46163549D01*
X109726981Y-46163548D01*
X109720217Y-46160558D01*
X109712873Y-46159689D01*
X109712867Y-46159687D01*
X109700272Y-46158196D01*
X109683550Y-46154733D01*
X109675539Y-46152338D01*
X109667273Y-46149866D01*
X109633378Y-46149659D01*
X109622356Y-46148975D01*
X109585690Y-46144636D01*
X109578408Y-46145966D01*
X109569738Y-46147549D01*
X109551348Y-46149158D01*
X109545284Y-46149121D01*
X109545283Y-46149121D01*
X109538231Y-46149078D01*
X109518444Y-46154733D01*
X109501924Y-46159454D01*
X109492509Y-46161654D01*
X109482135Y-46163549D01*
X109452427Y-46168975D01*
X109441475Y-46174664D01*
X109423051Y-46181996D01*
X109421172Y-46182533D01*
X109414155Y-46184539D01*
X109392529Y-46198184D01*
X109378960Y-46206745D01*
X109371770Y-46210872D01*
X109332212Y-46231421D01*
X109327172Y-46235725D01*
X109324975Y-46237922D01*
X109324471Y-46238324D01*
X109324356Y-46238431D01*
X109324348Y-46238423D01*
X109316225Y-46244913D01*
X109316354Y-46245065D01*
X109310984Y-46249635D01*
X109305019Y-46253399D01*
X109279024Y-46282833D01*
X109273194Y-46289434D01*
X109268994Y-46293903D01*
X108549215Y-47013682D01*
X108540503Y-47021423D01*
X108512589Y-47043429D01*
X108508382Y-47049516D01*
X108478991Y-47092042D01*
X108477182Y-47094573D01*
X108451917Y-47128779D01*
X108442065Y-47142117D01*
X108439672Y-47148933D01*
X108435568Y-47154870D01*
X108433335Y-47161929D01*
X108433335Y-47161930D01*
X108417748Y-47211216D01*
X108416781Y-47214115D01*
X108397180Y-47269932D01*
X108396943Y-47275974D01*
X108396422Y-47278648D01*
X108394719Y-47284031D01*
X108394199Y-47290638D01*
X108394199Y-47343842D01*
X108394123Y-47347729D01*
X108393071Y-47374512D01*
X108391861Y-47405295D01*
X108393658Y-47412073D01*
X108394199Y-47421898D01*
X108394199Y-48412072D01*
X108393513Y-48423708D01*
X108389335Y-48459009D01*
X106945311Y-48459009D01*
X106945311Y-48435470D01*
X106964218Y-48377279D01*
X106970913Y-48369034D01*
X106992440Y-48345252D01*
X106999236Y-48337743D01*
X107017401Y-48317675D01*
X107017401Y-48317674D01*
X107022133Y-48312447D01*
X107075175Y-48202970D01*
X107075323Y-48202664D01*
X107075323Y-48202663D01*
X107078399Y-48196315D01*
X107092615Y-48111818D01*
X107099174Y-48072831D01*
X107099174Y-48072826D01*
X107099808Y-48069060D01*
X107099944Y-48057940D01*
X107081650Y-47930199D01*
X107028239Y-47812728D01*
X106956498Y-47729468D01*
X106948609Y-47720312D01*
X106948608Y-47720311D01*
X106944004Y-47714968D01*
X106938087Y-47711133D01*
X106938085Y-47711131D01*
X106852100Y-47655400D01*
X106835717Y-47644781D01*
X106828961Y-47642761D01*
X106828960Y-47642760D01*
X106784104Y-47629345D01*
X106712084Y-47607806D01*
X106635455Y-47607338D01*
X106590093Y-47607061D01*
X106583042Y-47607018D01*
X106581496Y-47607460D01*
X106523734Y-47597066D01*
X106481386Y-47552904D01*
X106473084Y-47492284D01*
X106500515Y-47439814D01*
X106628440Y-47311889D01*
X106682957Y-47284112D01*
X106700256Y-47282910D01*
X106715836Y-47283196D01*
X106732571Y-47283503D01*
X106732573Y-47283503D01*
X106739624Y-47283632D01*
X106746427Y-47281777D01*
X106746429Y-47281777D01*
X106795497Y-47268399D01*
X106864124Y-47249689D01*
X106974093Y-47182168D01*
X106998802Y-47154870D01*
X107055959Y-47091724D01*
X107055959Y-47091723D01*
X107060691Y-47086496D01*
X107116957Y-46970364D01*
X107135569Y-46859735D01*
X107137732Y-46846880D01*
X107137732Y-46846875D01*
X107138366Y-46843109D01*
X107138502Y-46831989D01*
X107120208Y-46704248D01*
X107077865Y-46611120D01*
X107069718Y-46593201D01*
X107069717Y-46593200D01*
X107066797Y-46586777D01*
X106994709Y-46503114D01*
X106987167Y-46494361D01*
X106987166Y-46494360D01*
X106982562Y-46489017D01*
X106976645Y-46485182D01*
X106976643Y-46485180D01*
X106880193Y-46422666D01*
X106874275Y-46418830D01*
X106867519Y-46416810D01*
X106867518Y-46416809D01*
X106824704Y-46404005D01*
X106750642Y-46381855D01*
X106674013Y-46381387D01*
X106628651Y-46381110D01*
X106621600Y-46381067D01*
X106614823Y-46383004D01*
X106614822Y-46383004D01*
X106504304Y-46414590D01*
X106504302Y-46414591D01*
X106497524Y-46416528D01*
X106388388Y-46485388D01*
X106302965Y-46582111D01*
X106248123Y-46698921D01*
X106228270Y-46826429D01*
X106227615Y-46826327D01*
X106209717Y-46879203D01*
X106200345Y-46890042D01*
X105725349Y-47365038D01*
X105722220Y-47367738D01*
X105717731Y-47369933D01*
X105711513Y-47376636D01*
X105684107Y-47406180D01*
X105681531Y-47408856D01*
X105667752Y-47422635D01*
X105665207Y-47426345D01*
X105661771Y-47430258D01*
X105641599Y-47452004D01*
X105638212Y-47460492D01*
X105638212Y-47460493D01*
X105637334Y-47462694D01*
X105627020Y-47482010D01*
X105625679Y-47483965D01*
X105625678Y-47483968D01*
X105620508Y-47491504D01*
X105618398Y-47500396D01*
X105614359Y-47517416D01*
X105609986Y-47531242D01*
X105607592Y-47537244D01*
X105600117Y-47555980D01*
X105599500Y-47562273D01*
X105599500Y-47568442D01*
X105596825Y-47591301D01*
X105594660Y-47600424D01*
X105595940Y-47609828D01*
X105598596Y-47629345D01*
X105599500Y-47642695D01*
X105599500Y-48600246D01*
X105580593Y-48658437D01*
X105531093Y-48694401D01*
X105469907Y-48694401D01*
X105420407Y-48658437D01*
X105414504Y-48649294D01*
X105414488Y-48649266D01*
X105412235Y-48643971D01*
X105325011Y-48525446D01*
X105312566Y-48508535D01*
X105312565Y-48508534D01*
X105309157Y-48503903D01*
X105304775Y-48500181D01*
X105304773Y-48500178D01*
X105181006Y-48395031D01*
X105181005Y-48395030D01*
X105176620Y-48391305D01*
X105086430Y-48345252D01*
X105026859Y-48314833D01*
X105026856Y-48314832D01*
X105021735Y-48312217D01*
X105016149Y-48310850D01*
X104857090Y-48271928D01*
X104857087Y-48271927D01*
X104852810Y-48270881D01*
X104848412Y-48270608D01*
X104848411Y-48270608D01*
X104843349Y-48270294D01*
X104843347Y-48270294D01*
X104841833Y-48270200D01*
X104716453Y-48270200D01*
X104587261Y-48285262D01*
X104581855Y-48287224D01*
X104581852Y-48287225D01*
X104435116Y-48340488D01*
X104423788Y-48344600D01*
X104418978Y-48347753D01*
X104418975Y-48347755D01*
X104373944Y-48377279D01*
X104278350Y-48439953D01*
X104274394Y-48444130D01*
X104274393Y-48444130D01*
X104267259Y-48451661D01*
X104158749Y-48566207D01*
X104138978Y-48600246D01*
X104081032Y-48700007D01*
X104035455Y-48740829D01*
X103974588Y-48747065D01*
X103953898Y-48740152D01*
X103950951Y-48738790D01*
X103945034Y-48734955D01*
X103821401Y-48697980D01*
X103744772Y-48697512D01*
X103699410Y-48697235D01*
X103692359Y-48697192D01*
X103685582Y-48699129D01*
X103685581Y-48699129D01*
X103575063Y-48730715D01*
X103575061Y-48730716D01*
X103568283Y-48732653D01*
X103459147Y-48801513D01*
X103373724Y-48898236D01*
X103318882Y-49015046D01*
X103299029Y-49142554D01*
X103299944Y-49149551D01*
X103299944Y-49149553D01*
X103306574Y-49200255D01*
X103295372Y-49260406D01*
X103250952Y-49302484D01*
X103190284Y-49310417D01*
X103171722Y-49305042D01*
X103165865Y-49302705D01*
X103165864Y-49302705D01*
X103159378Y-49300117D01*
X103153085Y-49299500D01*
X103146916Y-49299500D01*
X103124057Y-49296825D01*
X103123827Y-49296770D01*
X103123825Y-49296770D01*
X103114934Y-49294660D01*
X103086013Y-49298596D01*
X103072663Y-49299500D01*
X101212965Y-49299500D01*
X101154774Y-49280593D01*
X101122843Y-49241476D01*
X101086349Y-49161212D01*
X101086348Y-49161211D01*
X101083428Y-49154788D01*
X100999193Y-49057028D01*
X100993276Y-49053193D01*
X100993274Y-49053191D01*
X100896824Y-48990677D01*
X100890906Y-48986841D01*
X100884150Y-48984821D01*
X100884149Y-48984820D01*
X100822872Y-48966494D01*
X100767273Y-48949866D01*
X100690644Y-48949398D01*
X100645282Y-48949121D01*
X100638231Y-48949078D01*
X100631454Y-48951015D01*
X100631453Y-48951015D01*
X100520935Y-48982601D01*
X100520933Y-48982602D01*
X100514155Y-48984539D01*
X100405019Y-49053399D01*
X100319596Y-49150122D01*
X100264754Y-49266932D01*
X100244901Y-49394440D01*
X100261633Y-49522394D01*
X100264471Y-49528845D01*
X100264472Y-49528847D01*
X100306282Y-49623867D01*
X100313605Y-49640510D01*
X100324083Y-49652975D01*
X100392100Y-49733892D01*
X100392103Y-49733894D01*
X100396639Y-49739291D01*
X100402510Y-49743199D01*
X100410711Y-49748658D01*
X100448673Y-49796642D01*
X100451182Y-49857776D01*
X100434656Y-49890993D01*
X100430271Y-49896760D01*
X100421472Y-49906838D01*
X99782945Y-50545364D01*
X99728428Y-50573141D01*
X99712341Y-50574358D01*
X99675810Y-50574135D01*
X99673563Y-50574121D01*
X99666512Y-50574078D01*
X99659736Y-50576015D01*
X99659733Y-50576015D01*
X99549216Y-50607601D01*
X99549214Y-50607602D01*
X99542436Y-50609539D01*
X99433300Y-50678399D01*
X99347877Y-50775122D01*
X99293035Y-50891932D01*
X99273182Y-51019440D01*
X99289914Y-51147394D01*
X99292752Y-51153845D01*
X99292753Y-51153847D01*
X99333261Y-51245909D01*
X99341886Y-51265510D01*
X99353652Y-51279507D01*
X99420381Y-51358892D01*
X99420384Y-51358894D01*
X99424920Y-51364291D01*
X99502804Y-51416134D01*
X99505739Y-51418088D01*
X99543703Y-51466072D01*
X99546212Y-51527206D01*
X99512308Y-51578139D01*
X99450882Y-51599500D01*
X97965479Y-51599500D01*
X97907288Y-51580593D01*
X97895475Y-51570504D01*
X97383282Y-51058311D01*
X97355505Y-51003794D01*
X97355128Y-51000416D01*
X97355133Y-51000000D01*
X97336839Y-50872259D01*
X97283428Y-50754788D01*
X97222161Y-50683684D01*
X97203798Y-50662372D01*
X97203797Y-50662371D01*
X97199193Y-50657028D01*
X97193276Y-50653193D01*
X97193274Y-50653191D01*
X97107581Y-50597649D01*
X97090906Y-50586841D01*
X97084150Y-50584821D01*
X97084149Y-50584820D01*
X97021812Y-50566177D01*
X96967273Y-50549866D01*
X96890644Y-50549398D01*
X96845282Y-50549121D01*
X96838231Y-50549078D01*
X96831454Y-50551015D01*
X96831453Y-50551015D01*
X96720935Y-50582601D01*
X96720933Y-50582602D01*
X96714155Y-50584539D01*
X96605019Y-50653399D01*
X96519596Y-50750122D01*
X96464754Y-50866932D01*
X96444901Y-50994440D01*
X96461633Y-51122394D01*
X96464471Y-51128845D01*
X96464472Y-51128847D01*
X96510764Y-51234054D01*
X96513605Y-51240510D01*
X96555122Y-51289901D01*
X96592100Y-51333892D01*
X96592103Y-51333894D01*
X96596639Y-51339291D01*
X96704060Y-51410796D01*
X96710788Y-51412898D01*
X96710790Y-51412899D01*
X96778510Y-51434056D01*
X96827233Y-51449278D01*
X96861186Y-51449901D01*
X96886177Y-51450359D01*
X96944012Y-51470330D01*
X96954366Y-51479338D01*
X97203664Y-51728636D01*
X97231441Y-51783153D01*
X97221870Y-51843585D01*
X97178605Y-51886850D01*
X97118173Y-51896421D01*
X97094668Y-51889279D01*
X97090906Y-51886841D01*
X96967273Y-51849866D01*
X96890644Y-51849398D01*
X96845282Y-51849121D01*
X96838231Y-51849078D01*
X96831454Y-51851015D01*
X96831453Y-51851015D01*
X96720935Y-51882601D01*
X96720933Y-51882602D01*
X96714155Y-51884539D01*
X96605019Y-51953399D01*
X96519596Y-52050122D01*
X96464754Y-52166932D01*
X96444901Y-52294440D01*
X96461633Y-52422394D01*
X96513605Y-52540510D01*
X96565282Y-52601987D01*
X96594543Y-52636798D01*
X96617513Y-52693508D01*
X96602762Y-52752889D01*
X96555926Y-52792259D01*
X96518760Y-52799500D01*
X85034281Y-52799500D01*
X85011926Y-52796943D01*
X85009070Y-52796281D01*
X85000718Y-52794345D01*
X85000000Y-52794344D01*
X84994541Y-52795589D01*
X84992772Y-52795787D01*
X84987754Y-52796219D01*
X84798379Y-52807673D01*
X84737264Y-52811370D01*
X84737262Y-52811370D01*
X84734274Y-52811551D01*
X84639750Y-52828873D01*
X84475363Y-52858998D01*
X84475359Y-52858999D01*
X84472423Y-52859537D01*
X84469571Y-52860426D01*
X84469570Y-52860426D01*
X84221121Y-52937846D01*
X84221116Y-52937848D01*
X84218266Y-52938736D01*
X84215547Y-52939960D01*
X84215541Y-52939962D01*
X83978233Y-53046766D01*
X83978225Y-53046770D01*
X83975508Y-53047993D01*
X83747689Y-53185714D01*
X83745335Y-53187558D01*
X83745331Y-53187561D01*
X83650552Y-53261816D01*
X83538132Y-53349892D01*
X83349892Y-53538132D01*
X83185714Y-53747689D01*
X83047993Y-53975508D01*
X83046770Y-53978225D01*
X83046766Y-53978233D01*
X82939962Y-54215541D01*
X82938736Y-54218266D01*
X82859537Y-54472423D01*
X82811551Y-54734274D01*
X82795912Y-54992821D01*
X82794344Y-54999641D01*
X82796805Y-55010517D01*
X82796791Y-55018819D01*
X82797931Y-55031937D01*
X82781567Y-55365038D01*
X82781443Y-55367556D01*
X82780491Y-55377220D01*
X82728409Y-55728340D01*
X82727207Y-55736441D01*
X82725311Y-55745970D01*
X82637077Y-56098217D01*
X82634257Y-56107514D01*
X82511918Y-56449427D01*
X82508200Y-56458403D01*
X82352938Y-56786678D01*
X82348358Y-56795246D01*
X82161667Y-57106721D01*
X82156278Y-57114787D01*
X81939936Y-57406490D01*
X81933795Y-57413971D01*
X81791749Y-57570695D01*
X81689918Y-57683048D01*
X81683048Y-57689918D01*
X81570695Y-57791749D01*
X81413971Y-57933795D01*
X81406490Y-57939936D01*
X81114787Y-58156278D01*
X81106721Y-58161667D01*
X80795246Y-58348358D01*
X80786678Y-58352938D01*
X80458403Y-58508200D01*
X80449427Y-58511918D01*
X80107514Y-58634257D01*
X80098217Y-58637077D01*
X79922664Y-58681051D01*
X79745964Y-58725312D01*
X79736446Y-58727206D01*
X79377220Y-58780491D01*
X79367561Y-58781443D01*
X79217170Y-58788831D01*
X79004858Y-58799261D01*
X78995142Y-58799261D01*
X78782830Y-58788831D01*
X78632439Y-58781443D01*
X78622780Y-58780491D01*
X78263554Y-58727206D01*
X78254036Y-58725312D01*
X78077336Y-58681051D01*
X77901783Y-58637077D01*
X77892486Y-58634257D01*
X77550573Y-58511918D01*
X77541597Y-58508200D01*
X77213322Y-58352938D01*
X77204754Y-58348358D01*
X76893279Y-58161667D01*
X76885213Y-58156278D01*
X76593510Y-57939936D01*
X76586029Y-57933795D01*
X76429305Y-57791749D01*
X76316952Y-57689918D01*
X76310082Y-57683048D01*
X76252313Y-57619310D01*
X76745729Y-57619310D01*
X76746457Y-57623908D01*
X76746738Y-57624286D01*
X76746989Y-57624526D01*
X76751048Y-57628005D01*
X77043610Y-57852495D01*
X77048033Y-57855523D01*
X77363118Y-58047098D01*
X77367840Y-58049630D01*
X77701773Y-58206056D01*
X77706745Y-58208066D01*
X78055631Y-58327515D01*
X78060778Y-58328971D01*
X78420530Y-58410045D01*
X78425786Y-58410934D01*
X78792196Y-58452681D01*
X78797532Y-58452998D01*
X79166300Y-58454929D01*
X79171636Y-58454668D01*
X79538466Y-58416760D01*
X79543725Y-58415927D01*
X79904321Y-58338623D01*
X79909473Y-58337223D01*
X80259593Y-58221431D01*
X80264570Y-58219480D01*
X80600141Y-58066552D01*
X80604877Y-58064076D01*
X80921967Y-57875801D01*
X80926402Y-57872833D01*
X81221316Y-57651406D01*
X81225396Y-57647982D01*
X81246686Y-57628059D01*
X81253132Y-57616382D01*
X81252590Y-57612034D01*
X81252042Y-57611252D01*
X79011086Y-55370296D01*
X78999203Y-55364242D01*
X78994172Y-55365038D01*
X76751783Y-57607427D01*
X76745729Y-57619310D01*
X76252313Y-57619310D01*
X76208251Y-57570695D01*
X76066205Y-57413971D01*
X76060064Y-57406490D01*
X75843722Y-57114787D01*
X75838333Y-57106721D01*
X75651642Y-56795246D01*
X75647062Y-56786678D01*
X75491800Y-56458403D01*
X75488082Y-56449427D01*
X75365743Y-56107514D01*
X75362923Y-56098217D01*
X75274689Y-55745970D01*
X75272793Y-55736441D01*
X75272368Y-55733576D01*
X75219508Y-55377218D01*
X75218557Y-55367557D01*
X75218434Y-55365038D01*
X75202108Y-55032719D01*
X75203983Y-55011782D01*
X75203748Y-55011755D01*
X75204390Y-55006177D01*
X75205655Y-55000718D01*
X75205656Y-55000000D01*
X75204113Y-54993235D01*
X75203511Y-54990596D01*
X75541083Y-54990596D01*
X75559740Y-55358893D01*
X75560300Y-55364219D01*
X75618623Y-55728340D01*
X75619755Y-55733576D01*
X75717063Y-56089271D01*
X75718751Y-56094346D01*
X75853905Y-56437456D01*
X75856130Y-56442316D01*
X76027550Y-56768822D01*
X76030288Y-56773417D01*
X76235967Y-57079499D01*
X76239188Y-57083773D01*
X76374379Y-57244317D01*
X76385702Y-57251365D01*
X76388697Y-57251150D01*
X76391495Y-57249295D01*
X78629704Y-55011086D01*
X78634946Y-55000797D01*
X79364242Y-55000797D01*
X79365038Y-55005828D01*
X81604264Y-57245054D01*
X81616147Y-57251108D01*
X81619383Y-57250596D01*
X81621652Y-57248814D01*
X81738838Y-57112572D01*
X81742106Y-57108328D01*
X81950983Y-56804410D01*
X81953762Y-56799856D01*
X82128590Y-56475165D01*
X82130874Y-56470313D01*
X82269610Y-56128646D01*
X82271352Y-56123588D01*
X82372375Y-55768941D01*
X82373566Y-55763704D01*
X82435697Y-55400222D01*
X82436313Y-55394891D01*
X82458902Y-55025569D01*
X82458994Y-55022726D01*
X82459068Y-55001423D01*
X82458996Y-54998584D01*
X82438985Y-54629090D01*
X82438410Y-54623789D01*
X82378813Y-54259852D01*
X82377665Y-54254634D01*
X82279118Y-53899286D01*
X82277407Y-53894200D01*
X82141061Y-53551578D01*
X82138815Y-53546716D01*
X81966255Y-53220809D01*
X81963504Y-53216230D01*
X81756759Y-52910869D01*
X81753519Y-52906601D01*
X81625576Y-52755735D01*
X81614227Y-52748726D01*
X81611144Y-52748957D01*
X81608479Y-52750731D01*
X79370296Y-54988914D01*
X79364242Y-55000797D01*
X78634946Y-55000797D01*
X78635758Y-54999203D01*
X78634962Y-54994172D01*
X76395710Y-52754920D01*
X76383827Y-52748866D01*
X76380682Y-52749364D01*
X76378291Y-52751248D01*
X76253797Y-52897012D01*
X76250556Y-52901251D01*
X76042742Y-53205895D01*
X76039972Y-53210468D01*
X75866277Y-53535769D01*
X75864015Y-53540620D01*
X75726468Y-53882779D01*
X75724748Y-53887831D01*
X75624957Y-54242851D01*
X75623790Y-54248072D01*
X75562928Y-54611770D01*
X75562329Y-54617101D01*
X75541102Y-54985260D01*
X75541083Y-54990596D01*
X75203511Y-54990596D01*
X75202980Y-54988266D01*
X75200500Y-54966248D01*
X75200500Y-52383242D01*
X76746512Y-52383242D01*
X76747081Y-52387679D01*
X76747537Y-52388327D01*
X78988914Y-54629704D01*
X79000797Y-54635758D01*
X79005828Y-54634962D01*
X81247798Y-52392992D01*
X81253852Y-52381109D01*
X81253138Y-52376601D01*
X81252761Y-52376095D01*
X81243833Y-52367623D01*
X81239770Y-52364165D01*
X80946415Y-52140689D01*
X80941993Y-52137684D01*
X80626232Y-51947205D01*
X80621505Y-51944692D01*
X80287024Y-51789431D01*
X80282048Y-51787440D01*
X79932752Y-51669210D01*
X79927589Y-51667768D01*
X79567574Y-51587955D01*
X79562294Y-51587081D01*
X79195746Y-51546614D01*
X79190423Y-51546316D01*
X78821645Y-51545673D01*
X78816297Y-51545953D01*
X78449630Y-51585139D01*
X78444343Y-51585994D01*
X78084032Y-51664555D01*
X78078884Y-51665973D01*
X77729163Y-51782988D01*
X77724203Y-51784952D01*
X77389177Y-51939047D01*
X77384429Y-51941550D01*
X77068003Y-52130927D01*
X77063584Y-52133908D01*
X76769447Y-52356361D01*
X76765364Y-52359813D01*
X76752918Y-52371542D01*
X76746512Y-52383242D01*
X75200500Y-52383242D01*
X75200500Y-51122592D01*
X87128831Y-51122592D01*
X87153749Y-51220708D01*
X87156763Y-51229219D01*
X87237911Y-51405241D01*
X87242433Y-51413074D01*
X87354299Y-51571361D01*
X87360163Y-51578227D01*
X87499004Y-51713479D01*
X87506027Y-51719166D01*
X87667183Y-51826847D01*
X87675134Y-51831164D01*
X87853214Y-51907673D01*
X87861809Y-51910466D01*
X87930706Y-51926056D01*
X87943603Y-51924871D01*
X87945460Y-51918116D01*
X88454000Y-51918116D01*
X88458122Y-51930801D01*
X88459293Y-51931652D01*
X88462075Y-51931890D01*
X88463123Y-51931638D01*
X88646664Y-51869334D01*
X88654922Y-51865657D01*
X88824028Y-51770953D01*
X88831483Y-51765830D01*
X88980498Y-51641896D01*
X88986896Y-51635498D01*
X89110830Y-51486483D01*
X89115953Y-51479028D01*
X89210657Y-51309922D01*
X89214334Y-51301664D01*
X89275848Y-51120451D01*
X89274288Y-51111372D01*
X89273251Y-51110363D01*
X89267407Y-51109000D01*
X88469680Y-51109000D01*
X88456995Y-51113122D01*
X88454000Y-51117243D01*
X88454000Y-51918116D01*
X87945460Y-51918116D01*
X87946000Y-51916153D01*
X87946000Y-51124680D01*
X87941878Y-51111995D01*
X87937757Y-51109000D01*
X87141059Y-51109000D01*
X87129149Y-51112870D01*
X87128831Y-51122592D01*
X75200500Y-51122592D01*
X75200500Y-49807592D01*
X75428831Y-49807592D01*
X75453749Y-49905708D01*
X75456763Y-49914219D01*
X75537911Y-50090241D01*
X75542433Y-50098074D01*
X75654299Y-50256361D01*
X75660163Y-50263227D01*
X75799004Y-50398479D01*
X75806027Y-50404166D01*
X75967183Y-50511847D01*
X75975134Y-50516164D01*
X76153214Y-50592673D01*
X76161809Y-50595466D01*
X76230706Y-50611056D01*
X76243603Y-50609871D01*
X76245460Y-50603116D01*
X76754000Y-50603116D01*
X76758122Y-50615801D01*
X76759293Y-50616652D01*
X76762075Y-50616890D01*
X76763123Y-50616638D01*
X76853309Y-50586024D01*
X87127439Y-50586024D01*
X87127591Y-50597649D01*
X87138138Y-50601000D01*
X87930320Y-50601000D01*
X87943005Y-50596878D01*
X87946000Y-50592757D01*
X87946000Y-50585320D01*
X88454000Y-50585320D01*
X88458122Y-50598005D01*
X88462243Y-50601000D01*
X89259833Y-50601000D01*
X89271323Y-50597267D01*
X89271527Y-50586866D01*
X89236321Y-50462037D01*
X89233080Y-50453593D01*
X89147356Y-50279762D01*
X89142631Y-50272052D01*
X89026663Y-50116752D01*
X89020614Y-50110034D01*
X88878282Y-49978463D01*
X88871117Y-49972965D01*
X88707190Y-49869535D01*
X88699138Y-49865432D01*
X88519109Y-49793609D01*
X88510450Y-49791044D01*
X88469379Y-49782874D01*
X88456134Y-49784442D01*
X88456099Y-49784474D01*
X88454000Y-49792518D01*
X88454000Y-50585320D01*
X87946000Y-50585320D01*
X87946000Y-49794065D01*
X87941878Y-49781380D01*
X87941274Y-49780941D01*
X87934127Y-49780425D01*
X87917507Y-49783281D01*
X87908788Y-49785618D01*
X87726938Y-49852706D01*
X87718776Y-49856599D01*
X87552212Y-49955695D01*
X87544887Y-49961016D01*
X87399168Y-50088809D01*
X87392948Y-50095363D01*
X87272951Y-50247578D01*
X87268028Y-50255157D01*
X87177777Y-50426696D01*
X87174323Y-50435036D01*
X87127439Y-50586024D01*
X76853309Y-50586024D01*
X76946664Y-50554334D01*
X76954922Y-50550657D01*
X77124028Y-50455953D01*
X77131483Y-50450830D01*
X77280498Y-50326896D01*
X77286896Y-50320498D01*
X77410830Y-50171483D01*
X77415953Y-50164028D01*
X77510657Y-49994922D01*
X77514334Y-49986664D01*
X77575848Y-49805451D01*
X77574288Y-49796372D01*
X77573251Y-49795363D01*
X77567407Y-49794000D01*
X76769680Y-49794000D01*
X76756995Y-49798122D01*
X76754000Y-49802243D01*
X76754000Y-50603116D01*
X76245460Y-50603116D01*
X76246000Y-50601153D01*
X76246000Y-49809680D01*
X76241878Y-49796995D01*
X76237757Y-49794000D01*
X75441059Y-49794000D01*
X75429149Y-49797870D01*
X75428831Y-49807592D01*
X75200500Y-49807592D01*
X75200500Y-49271024D01*
X75427439Y-49271024D01*
X75427591Y-49282649D01*
X75438138Y-49286000D01*
X76230320Y-49286000D01*
X76243005Y-49281878D01*
X76246000Y-49277757D01*
X76246000Y-49270320D01*
X76754000Y-49270320D01*
X76758122Y-49283005D01*
X76762243Y-49286000D01*
X77559833Y-49286000D01*
X77571323Y-49282267D01*
X77571527Y-49271866D01*
X77536321Y-49147037D01*
X77533080Y-49138593D01*
X77447356Y-48964762D01*
X77442631Y-48957052D01*
X77326663Y-48801752D01*
X77320614Y-48795034D01*
X77178282Y-48663463D01*
X77171117Y-48657965D01*
X77007190Y-48554535D01*
X76999138Y-48550432D01*
X76819109Y-48478609D01*
X76810450Y-48476044D01*
X76769379Y-48467874D01*
X76756134Y-48469442D01*
X76756099Y-48469474D01*
X76754000Y-48477518D01*
X76754000Y-49270320D01*
X76246000Y-49270320D01*
X76246000Y-48479065D01*
X76241878Y-48466380D01*
X76241274Y-48465941D01*
X76234127Y-48465425D01*
X76217507Y-48468281D01*
X76208788Y-48470618D01*
X76026938Y-48537706D01*
X76018776Y-48541599D01*
X75852212Y-48640695D01*
X75844887Y-48646016D01*
X75699168Y-48773809D01*
X75692948Y-48780363D01*
X75572951Y-48932578D01*
X75568028Y-48940157D01*
X75477777Y-49111696D01*
X75474323Y-49120036D01*
X75427439Y-49271024D01*
X75200500Y-49271024D01*
X75200500Y-48166389D01*
X75219407Y-48108198D01*
X75268907Y-48072234D01*
X75330093Y-48072234D01*
X75373814Y-48102531D01*
X75374556Y-48101883D01*
X75398797Y-48129628D01*
X75477307Y-48176536D01*
X75482590Y-48178252D01*
X75482591Y-48178253D01*
X75531795Y-48194240D01*
X75535498Y-48195443D01*
X75539342Y-48196052D01*
X75539347Y-48196053D01*
X75595152Y-48204891D01*
X75595157Y-48204891D01*
X75599000Y-48205500D01*
X77501000Y-48205500D01*
X77533144Y-48202970D01*
X77563737Y-48198125D01*
X77569126Y-48195893D01*
X77569129Y-48195892D01*
X77646990Y-48163642D01*
X77646992Y-48163641D01*
X77652383Y-48161408D01*
X77701883Y-48125444D01*
X77729628Y-48101203D01*
X77776536Y-48022693D01*
X77784920Y-47996891D01*
X77794240Y-47968205D01*
X77794240Y-47968203D01*
X77795443Y-47964502D01*
X77796253Y-47959393D01*
X77804891Y-47904848D01*
X77804891Y-47904843D01*
X77805500Y-47901000D01*
X77805500Y-46617442D01*
X80493043Y-46617442D01*
X80493125Y-46629181D01*
X80514790Y-46692823D01*
X80519475Y-46702780D01*
X80606429Y-46844121D01*
X80613194Y-46852780D01*
X80721799Y-46963684D01*
X80749004Y-47018489D01*
X80738800Y-47078817D01*
X80722937Y-47101035D01*
X80646008Y-47182243D01*
X80646004Y-47182248D01*
X80642053Y-47186419D01*
X80599344Y-47259949D01*
X80569175Y-47311889D01*
X80555911Y-47334724D01*
X80548056Y-47360658D01*
X80510710Y-47483965D01*
X80506196Y-47498868D01*
X80495577Y-47670046D01*
X80524621Y-47839076D01*
X80526872Y-47844365D01*
X80526873Y-47844370D01*
X80581840Y-47973550D01*
X80591772Y-47996891D01*
X80595177Y-48001518D01*
X80595181Y-48001525D01*
X80628682Y-48047048D01*
X80647944Y-48105122D01*
X80629392Y-48163427D01*
X80603949Y-48188040D01*
X80555448Y-48220448D01*
X80511133Y-48286769D01*
X80509231Y-48296332D01*
X80509230Y-48296334D01*
X80504985Y-48317675D01*
X80499500Y-48345252D01*
X80499500Y-49454748D01*
X80500448Y-49459512D01*
X80508162Y-49498293D01*
X80511133Y-49513231D01*
X80555448Y-49579552D01*
X80621769Y-49623867D01*
X80631332Y-49625769D01*
X80631334Y-49625770D01*
X80654005Y-49630279D01*
X80680252Y-49635500D01*
X82519748Y-49635500D01*
X82545995Y-49630279D01*
X82568666Y-49625770D01*
X82568668Y-49625769D01*
X82578231Y-49623867D01*
X82644552Y-49579552D01*
X82688867Y-49513231D01*
X82691839Y-49498293D01*
X82699552Y-49459512D01*
X82700500Y-49454748D01*
X82700500Y-48345252D01*
X82695015Y-48317675D01*
X82691551Y-48300262D01*
X87144520Y-48300262D01*
X87148233Y-48344474D01*
X87161308Y-48500178D01*
X87161759Y-48505553D01*
X87163092Y-48510201D01*
X87163092Y-48510202D01*
X87216937Y-48697980D01*
X87218544Y-48703586D01*
X87312712Y-48886818D01*
X87440677Y-49048270D01*
X87444357Y-49051402D01*
X87444359Y-49051404D01*
X87487450Y-49088077D01*
X87597564Y-49181791D01*
X87601787Y-49184151D01*
X87601791Y-49184154D01*
X87704384Y-49241491D01*
X87777398Y-49282297D01*
X87781996Y-49283791D01*
X87968724Y-49344463D01*
X87968726Y-49344464D01*
X87973329Y-49345959D01*
X88177894Y-49370351D01*
X88182716Y-49369980D01*
X88182719Y-49369980D01*
X88251921Y-49364655D01*
X88383300Y-49354546D01*
X88581725Y-49299145D01*
X88586038Y-49296966D01*
X88586044Y-49296964D01*
X88761289Y-49208441D01*
X88761291Y-49208440D01*
X88765610Y-49206258D01*
X88825156Y-49159736D01*
X88924135Y-49082406D01*
X88924139Y-49082402D01*
X88927951Y-49079424D01*
X88952653Y-49050807D01*
X89009853Y-48984539D01*
X89062564Y-48923472D01*
X89077053Y-48897967D01*
X89161934Y-48748550D01*
X89161935Y-48748547D01*
X89164323Y-48744344D01*
X89166961Y-48736416D01*
X89227824Y-48553454D01*
X89227824Y-48553452D01*
X89229351Y-48548863D01*
X89230761Y-48537706D01*
X89254459Y-48350110D01*
X89255171Y-48344474D01*
X89255583Y-48315000D01*
X89255176Y-48310850D01*
X89235952Y-48114780D01*
X89235951Y-48114776D01*
X89235480Y-48109970D01*
X89234017Y-48105122D01*
X89181219Y-47930251D01*
X89175935Y-47912749D01*
X89079218Y-47730849D01*
X88949011Y-47571200D01*
X88887670Y-47520454D01*
X88794002Y-47442965D01*
X88794000Y-47442964D01*
X88790275Y-47439882D01*
X88609055Y-47341897D01*
X88512115Y-47311889D01*
X88416875Y-47282407D01*
X88416871Y-47282406D01*
X88412254Y-47280977D01*
X88407446Y-47280472D01*
X88407443Y-47280471D01*
X88212185Y-47259949D01*
X88212183Y-47259949D01*
X88207369Y-47259443D01*
X88147354Y-47264905D01*
X88007022Y-47277675D01*
X88007017Y-47277676D01*
X88002203Y-47278114D01*
X87804572Y-47336280D01*
X87800288Y-47338519D01*
X87800287Y-47338520D01*
X87749563Y-47365038D01*
X87622002Y-47431726D01*
X87611943Y-47439814D01*
X87465220Y-47557781D01*
X87465217Y-47557783D01*
X87461447Y-47560815D01*
X87458333Y-47564526D01*
X87458332Y-47564527D01*
X87353761Y-47689150D01*
X87329024Y-47718630D01*
X87326689Y-47722878D01*
X87326688Y-47722879D01*
X87319955Y-47735126D01*
X87229776Y-47899162D01*
X87228313Y-47903775D01*
X87228311Y-47903779D01*
X87192266Y-48017409D01*
X87167484Y-48095532D01*
X87166944Y-48100344D01*
X87166944Y-48100345D01*
X87146203Y-48285262D01*
X87144520Y-48300262D01*
X82691551Y-48300262D01*
X82690770Y-48296334D01*
X82690769Y-48296332D01*
X82688867Y-48286769D01*
X82644552Y-48220448D01*
X82598005Y-48189346D01*
X82560126Y-48141296D01*
X82557724Y-48080158D01*
X82567400Y-48057307D01*
X82641200Y-47930251D01*
X82641202Y-47930246D01*
X82644089Y-47925276D01*
X82693804Y-47761132D01*
X82703492Y-47604969D01*
X82704067Y-47595694D01*
X82704067Y-47595693D01*
X82704423Y-47589954D01*
X82675379Y-47420924D01*
X82673128Y-47415635D01*
X82673127Y-47415630D01*
X82610479Y-47268399D01*
X82610479Y-47268398D01*
X82608228Y-47263109D01*
X82506573Y-47124975D01*
X82485156Y-47106780D01*
X82453051Y-47054697D01*
X82455340Y-47024607D01*
X104010222Y-47024607D01*
X104039673Y-47196004D01*
X104041925Y-47201295D01*
X104041925Y-47201297D01*
X104098781Y-47334915D01*
X104107765Y-47356029D01*
X104164993Y-47433793D01*
X104202072Y-47484178D01*
X104210843Y-47496097D01*
X104215225Y-47499819D01*
X104215227Y-47499822D01*
X104333644Y-47600424D01*
X104343380Y-47608695D01*
X104414050Y-47644781D01*
X104493141Y-47685167D01*
X104493144Y-47685168D01*
X104498265Y-47687783D01*
X104503850Y-47689150D01*
X104503851Y-47689150D01*
X104662910Y-47728072D01*
X104662913Y-47728073D01*
X104667190Y-47729119D01*
X104671588Y-47729392D01*
X104671589Y-47729392D01*
X104676651Y-47729706D01*
X104676653Y-47729706D01*
X104678167Y-47729800D01*
X104803547Y-47729800D01*
X104932739Y-47714738D01*
X104938145Y-47712776D01*
X104938148Y-47712775D01*
X105090804Y-47657363D01*
X105096212Y-47655400D01*
X105101022Y-47652247D01*
X105101025Y-47652245D01*
X105173132Y-47604969D01*
X105241650Y-47560047D01*
X105361251Y-47433793D01*
X105448599Y-47283412D01*
X105487673Y-47154401D01*
X105497343Y-47122474D01*
X105497343Y-47122471D01*
X105499010Y-47116969D01*
X105509778Y-46943393D01*
X105480327Y-46771996D01*
X105454518Y-46711340D01*
X105414486Y-46617261D01*
X105412235Y-46611971D01*
X105322970Y-46490673D01*
X105312566Y-46476535D01*
X105312565Y-46476534D01*
X105309157Y-46471903D01*
X105304775Y-46468181D01*
X105304773Y-46468178D01*
X105181006Y-46363031D01*
X105181005Y-46363030D01*
X105176620Y-46359305D01*
X105091332Y-46315755D01*
X105026859Y-46282833D01*
X105026856Y-46282832D01*
X105021735Y-46280217D01*
X105003505Y-46275756D01*
X104857090Y-46239928D01*
X104857087Y-46239927D01*
X104852810Y-46238881D01*
X104848412Y-46238608D01*
X104848411Y-46238608D01*
X104843349Y-46238294D01*
X104843347Y-46238294D01*
X104841833Y-46238200D01*
X104716453Y-46238200D01*
X104587261Y-46253262D01*
X104581855Y-46255224D01*
X104581852Y-46255225D01*
X104487609Y-46289434D01*
X104423788Y-46312600D01*
X104418978Y-46315753D01*
X104418975Y-46315755D01*
X104367591Y-46349444D01*
X104278350Y-46407953D01*
X104158749Y-46534207D01*
X104071401Y-46684588D01*
X104048124Y-46761442D01*
X104024547Y-46839288D01*
X104020990Y-46851031D01*
X104014464Y-46956224D01*
X104010602Y-47018489D01*
X104010222Y-47024607D01*
X82455340Y-47024607D01*
X82457692Y-46993688D01*
X82479496Y-46961086D01*
X82579857Y-46861423D01*
X82586755Y-46852842D01*
X82675667Y-46712739D01*
X82680493Y-46702844D01*
X82701181Y-46644748D01*
X87149500Y-46644748D01*
X87151437Y-46654484D01*
X87159063Y-46692823D01*
X87161133Y-46703231D01*
X87205448Y-46769552D01*
X87271769Y-46813867D01*
X87281332Y-46815769D01*
X87281334Y-46815770D01*
X87304005Y-46820279D01*
X87330252Y-46825500D01*
X89069748Y-46825500D01*
X89095995Y-46820279D01*
X89118666Y-46815770D01*
X89118668Y-46815769D01*
X89128231Y-46813867D01*
X89194552Y-46769552D01*
X89238867Y-46703231D01*
X89240938Y-46692823D01*
X89248563Y-46654484D01*
X89250500Y-46644748D01*
X89250500Y-44985262D01*
X111944520Y-44985262D01*
X111961759Y-45190553D01*
X111963092Y-45195201D01*
X111963092Y-45195202D01*
X111991252Y-45293406D01*
X112018544Y-45388586D01*
X112112712Y-45571818D01*
X112240677Y-45733270D01*
X112244357Y-45736402D01*
X112244359Y-45736404D01*
X112300360Y-45784064D01*
X112397564Y-45866791D01*
X112401787Y-45869151D01*
X112401791Y-45869154D01*
X112441342Y-45891258D01*
X112577398Y-45967297D01*
X112581996Y-45968791D01*
X112768724Y-46029463D01*
X112768726Y-46029464D01*
X112773329Y-46030959D01*
X112977894Y-46055351D01*
X112982716Y-46054980D01*
X112982719Y-46054980D01*
X113050541Y-46049761D01*
X113183300Y-46039546D01*
X113381725Y-45984145D01*
X113386038Y-45981966D01*
X113386044Y-45981964D01*
X113561289Y-45893441D01*
X113561291Y-45893440D01*
X113565610Y-45891258D01*
X113569427Y-45888276D01*
X113724135Y-45767406D01*
X113724139Y-45767402D01*
X113727951Y-45764424D01*
X113732708Y-45758914D01*
X113819734Y-45658091D01*
X113862564Y-45608472D01*
X113870203Y-45595025D01*
X113961934Y-45433550D01*
X113961935Y-45433547D01*
X113964323Y-45429344D01*
X113977882Y-45388586D01*
X114027824Y-45238454D01*
X114027824Y-45238452D01*
X114029351Y-45233863D01*
X114030960Y-45221132D01*
X114054823Y-45032228D01*
X114055171Y-45029474D01*
X114055583Y-45000000D01*
X114051550Y-44958868D01*
X114035952Y-44799780D01*
X114035951Y-44799776D01*
X114035480Y-44794970D01*
X114029460Y-44775029D01*
X113977333Y-44602380D01*
X113975935Y-44597749D01*
X113879218Y-44415849D01*
X113749011Y-44256200D01*
X113590275Y-44124882D01*
X113409055Y-44026897D01*
X113345855Y-44007333D01*
X113216875Y-43967407D01*
X113216871Y-43967406D01*
X113212254Y-43965977D01*
X113207446Y-43965472D01*
X113207443Y-43965471D01*
X113012185Y-43944949D01*
X113012183Y-43944949D01*
X113007369Y-43944443D01*
X112947354Y-43949905D01*
X112807022Y-43962675D01*
X112807017Y-43962676D01*
X112802203Y-43963114D01*
X112604572Y-44021280D01*
X112600288Y-44023519D01*
X112600287Y-44023520D01*
X112589428Y-44029197D01*
X112422002Y-44116726D01*
X112418231Y-44119758D01*
X112265220Y-44242781D01*
X112265217Y-44242783D01*
X112261447Y-44245815D01*
X112258333Y-44249526D01*
X112258332Y-44249527D01*
X112168808Y-44356218D01*
X112129024Y-44403630D01*
X112126689Y-44407878D01*
X112126688Y-44407879D01*
X112115696Y-44427873D01*
X112029776Y-44584162D01*
X112028313Y-44588775D01*
X112028311Y-44588779D01*
X111985258Y-44724500D01*
X111967484Y-44780532D01*
X111966944Y-44785344D01*
X111966944Y-44785345D01*
X111947481Y-44958868D01*
X111944520Y-44985262D01*
X89250500Y-44985262D01*
X89250500Y-44905252D01*
X89238867Y-44846769D01*
X89194552Y-44780448D01*
X89128231Y-44736133D01*
X89118668Y-44734231D01*
X89118666Y-44734230D01*
X89095995Y-44729721D01*
X89069748Y-44724500D01*
X87330252Y-44724500D01*
X87304005Y-44729721D01*
X87281334Y-44734230D01*
X87281332Y-44734231D01*
X87271769Y-44736133D01*
X87205448Y-44780448D01*
X87161133Y-44846769D01*
X87149500Y-44905252D01*
X87149500Y-46644748D01*
X82701181Y-46644748D01*
X82706870Y-46628772D01*
X82707174Y-46617892D01*
X82695740Y-46614000D01*
X80503637Y-46614000D01*
X80493043Y-46617442D01*
X77805500Y-46617442D01*
X77805500Y-46102108D01*
X80492826Y-46102108D01*
X80504260Y-46106000D01*
X82696363Y-46106000D01*
X82706957Y-46102558D01*
X82706875Y-46090819D01*
X82685210Y-46027177D01*
X82680525Y-46017220D01*
X82593571Y-45875879D01*
X82586806Y-45867220D01*
X82478201Y-45756316D01*
X82450996Y-45701511D01*
X82461200Y-45641183D01*
X82477063Y-45618965D01*
X82553992Y-45537757D01*
X82553996Y-45537752D01*
X82557947Y-45533581D01*
X82644089Y-45385276D01*
X82693804Y-45221132D01*
X82704423Y-45049954D01*
X82675379Y-44880924D01*
X82673128Y-44875635D01*
X82673127Y-44875630D01*
X82610479Y-44728399D01*
X82610479Y-44728398D01*
X82608228Y-44723109D01*
X82506573Y-44584975D01*
X82502191Y-44581253D01*
X82502189Y-44581250D01*
X82380252Y-44477658D01*
X82380251Y-44477657D01*
X82375866Y-44473932D01*
X82281821Y-44425910D01*
X82228244Y-44398552D01*
X82228241Y-44398551D01*
X82223120Y-44395936D01*
X82217534Y-44394569D01*
X82060808Y-44356218D01*
X82060805Y-44356217D01*
X82056528Y-44355171D01*
X82052130Y-44354898D01*
X82052129Y-44354898D01*
X82047228Y-44354594D01*
X82047226Y-44354594D01*
X82045712Y-44354500D01*
X81192054Y-44354500D01*
X81189207Y-44354832D01*
X81189206Y-44354832D01*
X81178726Y-44356054D01*
X81064647Y-44369354D01*
X81059241Y-44371316D01*
X81059238Y-44371317D01*
X80958513Y-44407879D01*
X80903431Y-44427873D01*
X80898621Y-44431026D01*
X80898618Y-44431028D01*
X80837171Y-44471315D01*
X80760002Y-44521909D01*
X80642053Y-44646419D01*
X80555911Y-44794724D01*
X80554244Y-44800229D01*
X80520964Y-44910110D01*
X80506196Y-44958868D01*
X80495577Y-45130046D01*
X80524621Y-45299076D01*
X80526872Y-45304365D01*
X80526873Y-45304370D01*
X80581840Y-45433550D01*
X80591772Y-45456891D01*
X80595179Y-45461520D01*
X80676349Y-45571818D01*
X80693427Y-45595025D01*
X80714844Y-45613220D01*
X80746949Y-45665303D01*
X80742308Y-45726312D01*
X80720504Y-45758914D01*
X80620143Y-45858577D01*
X80613245Y-45867158D01*
X80524333Y-46007261D01*
X80519507Y-46017156D01*
X80493130Y-46091228D01*
X80492826Y-46102108D01*
X77805500Y-46102108D01*
X77805500Y-42727592D01*
X111928831Y-42727592D01*
X111953749Y-42825708D01*
X111956763Y-42834219D01*
X112037911Y-43010241D01*
X112042433Y-43018074D01*
X112154299Y-43176361D01*
X112160163Y-43183227D01*
X112299004Y-43318479D01*
X112306027Y-43324166D01*
X112467183Y-43431847D01*
X112475134Y-43436164D01*
X112653214Y-43512673D01*
X112661809Y-43515466D01*
X112730706Y-43531056D01*
X112743603Y-43529871D01*
X112745460Y-43523116D01*
X113254000Y-43523116D01*
X113258122Y-43535801D01*
X113259293Y-43536652D01*
X113262075Y-43536890D01*
X113263123Y-43536638D01*
X113446664Y-43474334D01*
X113454922Y-43470657D01*
X113624028Y-43375953D01*
X113631483Y-43370830D01*
X113780498Y-43246896D01*
X113786896Y-43240498D01*
X113910830Y-43091483D01*
X113915953Y-43084028D01*
X114010657Y-42914922D01*
X114014334Y-42906664D01*
X114075848Y-42725451D01*
X114074288Y-42716372D01*
X114073251Y-42715363D01*
X114067407Y-42714000D01*
X113269680Y-42714000D01*
X113256995Y-42718122D01*
X113254000Y-42722243D01*
X113254000Y-43523116D01*
X112745460Y-43523116D01*
X112746000Y-43521153D01*
X112746000Y-42729680D01*
X112741878Y-42716995D01*
X112737757Y-42714000D01*
X111941059Y-42714000D01*
X111929149Y-42717870D01*
X111928831Y-42727592D01*
X77805500Y-42727592D01*
X77805500Y-42191024D01*
X111927439Y-42191024D01*
X111927591Y-42202649D01*
X111938138Y-42206000D01*
X112730320Y-42206000D01*
X112743005Y-42201878D01*
X112746000Y-42197757D01*
X112746000Y-42190320D01*
X113254000Y-42190320D01*
X113258122Y-42203005D01*
X113262243Y-42206000D01*
X114059833Y-42206000D01*
X114071323Y-42202267D01*
X114071527Y-42191866D01*
X114036321Y-42067037D01*
X114033080Y-42058593D01*
X113947356Y-41884762D01*
X113942631Y-41877052D01*
X113826663Y-41721752D01*
X113820614Y-41715034D01*
X113678282Y-41583463D01*
X113671117Y-41577965D01*
X113507190Y-41474535D01*
X113499138Y-41470432D01*
X113319109Y-41398609D01*
X113310450Y-41396044D01*
X113269379Y-41387874D01*
X113256134Y-41389442D01*
X113256099Y-41389474D01*
X113254000Y-41397518D01*
X113254000Y-42190320D01*
X112746000Y-42190320D01*
X112746000Y-41399065D01*
X112741878Y-41386380D01*
X112741274Y-41385941D01*
X112734127Y-41385425D01*
X112717507Y-41388281D01*
X112708788Y-41390618D01*
X112526938Y-41457706D01*
X112518776Y-41461599D01*
X112352212Y-41560695D01*
X112344887Y-41566016D01*
X112199168Y-41693809D01*
X112192948Y-41700363D01*
X112072951Y-41852578D01*
X112068028Y-41860157D01*
X111977777Y-42031696D01*
X111974323Y-42040036D01*
X111927439Y-42191024D01*
X77805500Y-42191024D01*
X77805500Y-40999000D01*
X77802970Y-40966856D01*
X77798125Y-40936263D01*
X77789133Y-40914552D01*
X77763642Y-40853010D01*
X77763641Y-40853008D01*
X77761408Y-40847617D01*
X77725444Y-40798117D01*
X77718132Y-40789748D01*
X111949500Y-40789748D01*
X111961133Y-40848231D01*
X112005448Y-40914552D01*
X112071769Y-40958867D01*
X112081332Y-40960769D01*
X112081334Y-40960770D01*
X112102255Y-40964931D01*
X112130252Y-40970500D01*
X113869748Y-40970500D01*
X113897745Y-40964931D01*
X113918666Y-40960770D01*
X113918668Y-40960769D01*
X113928231Y-40958867D01*
X113994552Y-40914552D01*
X114038867Y-40848231D01*
X114050500Y-40789748D01*
X114050500Y-39050252D01*
X114038867Y-38991769D01*
X113994552Y-38925448D01*
X113928231Y-38881133D01*
X113918668Y-38879231D01*
X113918666Y-38879230D01*
X113895995Y-38874721D01*
X113869748Y-38869500D01*
X112130252Y-38869500D01*
X112104005Y-38874721D01*
X112081334Y-38879230D01*
X112081332Y-38879231D01*
X112071769Y-38881133D01*
X112005448Y-38925448D01*
X111961133Y-38991769D01*
X111949500Y-39050252D01*
X111949500Y-40789748D01*
X77718132Y-40789748D01*
X77701203Y-40770372D01*
X77622693Y-40723464D01*
X77564502Y-40704557D01*
X77560658Y-40703948D01*
X77560653Y-40703947D01*
X77504848Y-40695109D01*
X77504843Y-40695109D01*
X77501000Y-40694500D01*
X75599000Y-40694500D01*
X75566856Y-40697030D01*
X75536263Y-40701875D01*
X75530874Y-40704107D01*
X75530871Y-40704108D01*
X75453010Y-40736358D01*
X75453008Y-40736359D01*
X75447617Y-40738592D01*
X75398117Y-40774556D01*
X75370372Y-40798797D01*
X75369798Y-40798140D01*
X75323694Y-40827112D01*
X75262647Y-40822999D01*
X75215676Y-40783789D01*
X75200500Y-40731114D01*
X75200500Y-40094748D01*
X75449500Y-40094748D01*
X75461133Y-40153231D01*
X75505448Y-40219552D01*
X75571769Y-40263867D01*
X75581332Y-40265769D01*
X75581334Y-40265770D01*
X75604005Y-40270279D01*
X75630252Y-40275500D01*
X77369748Y-40275500D01*
X77395995Y-40270279D01*
X77418666Y-40265770D01*
X77418668Y-40265769D01*
X77428231Y-40263867D01*
X77494552Y-40219552D01*
X77538867Y-40153231D01*
X77550500Y-40094748D01*
X77550500Y-38355252D01*
X77538867Y-38296769D01*
X77494552Y-38230448D01*
X77428231Y-38186133D01*
X77418668Y-38184231D01*
X77418666Y-38184230D01*
X77395995Y-38179721D01*
X77369748Y-38174500D01*
X75630252Y-38174500D01*
X75604005Y-38179721D01*
X75581334Y-38184230D01*
X75581332Y-38184231D01*
X75571769Y-38186133D01*
X75505448Y-38230448D01*
X75461133Y-38296769D01*
X75449500Y-38355252D01*
X75449500Y-40094748D01*
X75200500Y-40094748D01*
X75200500Y-35619310D01*
X76745729Y-35619310D01*
X76746457Y-35623908D01*
X76746738Y-35624286D01*
X76746989Y-35624526D01*
X76751048Y-35628005D01*
X77043610Y-35852495D01*
X77048033Y-35855523D01*
X77363118Y-36047098D01*
X77367840Y-36049630D01*
X77701773Y-36206056D01*
X77706745Y-36208066D01*
X78055631Y-36327515D01*
X78060778Y-36328971D01*
X78420530Y-36410045D01*
X78425786Y-36410934D01*
X78792196Y-36452681D01*
X78797532Y-36452998D01*
X79166300Y-36454929D01*
X79171636Y-36454668D01*
X79538466Y-36416760D01*
X79543725Y-36415927D01*
X79904321Y-36338623D01*
X79909473Y-36337223D01*
X80259593Y-36221431D01*
X80264570Y-36219480D01*
X80600141Y-36066552D01*
X80604877Y-36064076D01*
X80921967Y-35875801D01*
X80926402Y-35872833D01*
X81221316Y-35651406D01*
X81225396Y-35647982D01*
X81246686Y-35628059D01*
X81251516Y-35619310D01*
X108745729Y-35619310D01*
X108746457Y-35623908D01*
X108746738Y-35624286D01*
X108746989Y-35624526D01*
X108751048Y-35628005D01*
X109043610Y-35852495D01*
X109048033Y-35855523D01*
X109363118Y-36047098D01*
X109367840Y-36049630D01*
X109701773Y-36206056D01*
X109706745Y-36208066D01*
X110055631Y-36327515D01*
X110060778Y-36328971D01*
X110420530Y-36410045D01*
X110425786Y-36410934D01*
X110792196Y-36452681D01*
X110797532Y-36452998D01*
X111166300Y-36454929D01*
X111171636Y-36454668D01*
X111538466Y-36416760D01*
X111543725Y-36415927D01*
X111904321Y-36338623D01*
X111909473Y-36337223D01*
X112259593Y-36221431D01*
X112264570Y-36219480D01*
X112600141Y-36066552D01*
X112604877Y-36064076D01*
X112921967Y-35875801D01*
X112926402Y-35872833D01*
X113221316Y-35651406D01*
X113225396Y-35647982D01*
X113246686Y-35628059D01*
X113253132Y-35616382D01*
X113252590Y-35612034D01*
X113252042Y-35611252D01*
X111011086Y-33370296D01*
X110999203Y-33364242D01*
X110994172Y-33365038D01*
X108751783Y-35607427D01*
X108745729Y-35619310D01*
X81251516Y-35619310D01*
X81253132Y-35616382D01*
X81252590Y-35612034D01*
X81252042Y-35611252D01*
X79011086Y-33370296D01*
X78999203Y-33364242D01*
X78994172Y-33365038D01*
X76751783Y-35607427D01*
X76745729Y-35619310D01*
X75200500Y-35619310D01*
X75200500Y-33034281D01*
X75203057Y-33011926D01*
X75203252Y-33011086D01*
X75205655Y-33000718D01*
X75205656Y-33000000D01*
X75204413Y-32994549D01*
X75203970Y-32990596D01*
X75541083Y-32990596D01*
X75559740Y-33358893D01*
X75560300Y-33364219D01*
X75618623Y-33728340D01*
X75619755Y-33733576D01*
X75717063Y-34089271D01*
X75718751Y-34094346D01*
X75853905Y-34437456D01*
X75856130Y-34442316D01*
X76027550Y-34768822D01*
X76030288Y-34773417D01*
X76235967Y-35079499D01*
X76239188Y-35083773D01*
X76374379Y-35244317D01*
X76385702Y-35251365D01*
X76388697Y-35251150D01*
X76391495Y-35249295D01*
X78629704Y-33011086D01*
X78634946Y-33000797D01*
X79364242Y-33000797D01*
X79365038Y-33005828D01*
X81604264Y-35245054D01*
X81616147Y-35251108D01*
X81619383Y-35250596D01*
X81621652Y-35248814D01*
X81738838Y-35112572D01*
X81742106Y-35108328D01*
X81950983Y-34804410D01*
X81953762Y-34799856D01*
X82128590Y-34475165D01*
X82130874Y-34470313D01*
X82269610Y-34128646D01*
X82271352Y-34123588D01*
X82372375Y-33768941D01*
X82373566Y-33763704D01*
X82435697Y-33400222D01*
X82436313Y-33394891D01*
X82458902Y-33025569D01*
X82458994Y-33022726D01*
X82459068Y-33001423D01*
X82458996Y-32998584D01*
X82438985Y-32629090D01*
X82438410Y-32623789D01*
X82378813Y-32259852D01*
X82377665Y-32254634D01*
X82279118Y-31899286D01*
X82277407Y-31894200D01*
X82141061Y-31551578D01*
X82138815Y-31546716D01*
X81966255Y-31220809D01*
X81963504Y-31216230D01*
X81756759Y-30910869D01*
X81753519Y-30906601D01*
X81625576Y-30755735D01*
X81614227Y-30748726D01*
X81611144Y-30748957D01*
X81608479Y-30750731D01*
X79370296Y-32988914D01*
X79364242Y-33000797D01*
X78634946Y-33000797D01*
X78635758Y-32999203D01*
X78634962Y-32994172D01*
X76395710Y-30754920D01*
X76383827Y-30748866D01*
X76380682Y-30749364D01*
X76378291Y-30751248D01*
X76253797Y-30897012D01*
X76250556Y-30901251D01*
X76042742Y-31205895D01*
X76039972Y-31210468D01*
X75866277Y-31535769D01*
X75864015Y-31540620D01*
X75726468Y-31882779D01*
X75724748Y-31887831D01*
X75624957Y-32242851D01*
X75623790Y-32248072D01*
X75562928Y-32611770D01*
X75562329Y-32617101D01*
X75541102Y-32985260D01*
X75541083Y-32990596D01*
X75203970Y-32990596D01*
X75203791Y-32988995D01*
X75203941Y-32988978D01*
X75202082Y-32967805D01*
X75218394Y-32635758D01*
X75218558Y-32632437D01*
X75219509Y-32622775D01*
X75221142Y-32611770D01*
X75272794Y-32263554D01*
X75274689Y-32254030D01*
X75276182Y-32248072D01*
X75362923Y-31901783D01*
X75365743Y-31892486D01*
X75488082Y-31550573D01*
X75491800Y-31541597D01*
X75647062Y-31213322D01*
X75651642Y-31204754D01*
X75838333Y-30893279D01*
X75843722Y-30885213D01*
X76060064Y-30593510D01*
X76066205Y-30586029D01*
X76245391Y-30388327D01*
X76250000Y-30383242D01*
X76746512Y-30383242D01*
X76747081Y-30387679D01*
X76747537Y-30388327D01*
X78988914Y-32629704D01*
X79000797Y-32635758D01*
X79005828Y-32634962D01*
X81247798Y-30392992D01*
X81253852Y-30381109D01*
X81253138Y-30376601D01*
X81252761Y-30376095D01*
X81243833Y-30367623D01*
X81239770Y-30364165D01*
X80946415Y-30140689D01*
X80941993Y-30137684D01*
X80626232Y-29947205D01*
X80621505Y-29944692D01*
X80287024Y-29789431D01*
X80282048Y-29787440D01*
X79932752Y-29669210D01*
X79927589Y-29667768D01*
X79567574Y-29587955D01*
X79562294Y-29587081D01*
X79195746Y-29546614D01*
X79190423Y-29546316D01*
X78821645Y-29545673D01*
X78816297Y-29545953D01*
X78449630Y-29585139D01*
X78444343Y-29585994D01*
X78084032Y-29664555D01*
X78078884Y-29665973D01*
X77729163Y-29782988D01*
X77724203Y-29784952D01*
X77389177Y-29939047D01*
X77384429Y-29941550D01*
X77068003Y-30130927D01*
X77063584Y-30133908D01*
X76769447Y-30356361D01*
X76765364Y-30359813D01*
X76752918Y-30371542D01*
X76746512Y-30383242D01*
X76250000Y-30383242D01*
X76310082Y-30316952D01*
X76316952Y-30310082D01*
X76507163Y-30137684D01*
X76586029Y-30066205D01*
X76593510Y-30060064D01*
X76885213Y-29843722D01*
X76893279Y-29838333D01*
X77204754Y-29651642D01*
X77213322Y-29647062D01*
X77541597Y-29491800D01*
X77550573Y-29488082D01*
X77892486Y-29365743D01*
X77901783Y-29362923D01*
X78077336Y-29318949D01*
X78254036Y-29274688D01*
X78263554Y-29272794D01*
X78622780Y-29219509D01*
X78632439Y-29218557D01*
X78782830Y-29211169D01*
X78995142Y-29200739D01*
X79004858Y-29200739D01*
X79217170Y-29211169D01*
G37*
%TD.AperFunction*%
%TD*%
M02*
